,params,score
95,"{'num_leaves': 255, 'colsample_bytree': 0.7, 'learning_rate': 0.01, 'lambda_l2': 1, 'subsample': 0.8, 'min_data_in_leaf': 70, 'max_bin': 255, 'objective': 'regression_l1', 'min_sum_hessian_in_leaf': 0.0001}",0.0677388908667
30,"{'num_leaves': 255, 'colsample_bytree': 0.7, 'learning_rate': 0.01, 'lambda_l2': 1, 'subsample': 0.8, 'min_data_in_leaf': 70, 'max_bin': 127, 'objective': 'regression_l1', 'min_sum_hessian_in_leaf': 0.001}",0.0677405293013
28,"{'num_leaves': 255, 'colsample_bytree': 0.7, 'learning_rate': 0.01, 'lambda_l2': 2, 'subsample': 0.8, 'min_data_in_leaf': 70, 'max_bin': 127, 'objective': 'regression_l1', 'min_sum_hessian_in_leaf': 0.001}",0.0677417986479
42,"{'num_leaves': 255, 'colsample_bytree': 0.5, 'learning_rate': 0.01, 'lambda_l2': 2, 'subsample': 0.8, 'min_data_in_leaf': 70, 'max_bin': 127, 'objective': 'regression_l1', 'min_sum_hessian_in_leaf': 0.0001}",0.0677442803399
48,"{'num_leaves': 255, 'colsample_bytree': 0.5, 'learning_rate': 0.01, 'lambda_l2': 2, 'subsample': 0.8, 'min_data_in_leaf': 50, 'max_bin': 127, 'objective': 'regression_l1', 'min_sum_hessian_in_leaf': 0.0001}",0.0677449132242
76,"{'num_leaves': 255, 'colsample_bytree': 0.5, 'learning_rate': 0.01, 'lambda_l2': 2, 'subsample': 0.8, 'min_data_in_leaf': 70, 'max_bin': 255, 'objective': 'regression_l1', 'min_sum_hessian_in_leaf': 0.001}",0.067745298455
19,"{'num_leaves': 511, 'colsample_bytree': 0.7, 'learning_rate': 0.01, 'lambda_l2': 2, 'subsample': 0.8, 'min_data_in_leaf': 70, 'max_bin': 127, 'objective': 'regression_l1', 'min_sum_hessian_in_leaf': 0.001}",0.0677455342457
31,"{'num_leaves': 511, 'colsample_bytree': 0.5, 'learning_rate': 0.01, 'lambda_l2': 1, 'subsample': 0.8, 'min_data_in_leaf': 70, 'max_bin': 127, 'objective': 'regression_l1', 'min_sum_hessian_in_leaf': 0.0001}",0.0677455377036
92,"{'num_leaves': 511, 'colsample_bytree': 0.5, 'learning_rate': 0.01, 'lambda_l2': 1, 'subsample': 0.8, 'min_data_in_leaf': 70, 'max_bin': 255, 'objective': 'regression_l1', 'min_sum_hessian_in_leaf': 0.001}",0.0677487361071
50,"{'num_leaves': 511, 'colsample_bytree': 0.7, 'learning_rate': 0.01, 'lambda_l2': 2, 'subsample': 0.8, 'min_data_in_leaf': 70, 'max_bin': 127, 'objective': 'regression_l1', 'min_sum_hessian_in_leaf': 0.0001}",0.0677490489716
24,"{'num_leaves': 255, 'colsample_bytree': 0.7, 'learning_rate': 0.01, 'lambda_l2': 2, 'subsample': 0.8, 'min_data_in_leaf': 70, 'max_bin': 127, 'objective': 'regression_l1', 'min_sum_hessian_in_leaf': 0.0001}",0.0677492311303
67,"{'num_leaves': 255, 'colsample_bytree': 0.5, 'learning_rate': 0.01, 'lambda_l2': 1, 'subsample': 0.8, 'min_data_in_leaf': 70, 'max_bin': 127, 'objective': 'regression_l1', 'min_sum_hessian_in_leaf': 0.0001}",0.0677507226059
41,"{'num_leaves': 255, 'colsample_bytree': 0.5, 'learning_rate': 0.01, 'lambda_l2': 2, 'subsample': 0.8, 'min_data_in_leaf': 70, 'max_bin': 255, 'objective': 'regression_l1', 'min_sum_hessian_in_leaf': 0.0001}",0.0677533664543
36,"{'num_leaves': 511, 'colsample_bytree': 0.5, 'learning_rate': 0.01, 'lambda_l2': 2, 'subsample': 0.8, 'min_data_in_leaf': 70, 'max_bin': 127, 'objective': 'regression_l1', 'min_sum_hessian_in_leaf': 0.001}",0.067753513575
89,"{'num_leaves': 255, 'colsample_bytree': 0.5, 'learning_rate': 0.01, 'lambda_l2': 1, 'subsample': 0.8, 'min_data_in_leaf': 50, 'max_bin': 255, 'objective': 'regression_l1', 'min_sum_hessian_in_leaf': 0.0001}",0.0677552134594
84,"{'num_leaves': 255, 'colsample_bytree': 0.7, 'learning_rate': 0.01, 'lambda_l2': 1, 'subsample': 0.8, 'min_data_in_leaf': 50, 'max_bin': 255, 'objective': 'regression_l1', 'min_sum_hessian_in_leaf': 0.001}",0.0677553867287
38,"{'num_leaves': 511, 'colsample_bytree': 0.5, 'learning_rate': 0.01, 'lambda_l2': 2, 'subsample': 0.8, 'min_data_in_leaf': 50, 'max_bin': 255, 'objective': 'regression_l1', 'min_sum_hessian_in_leaf': 0.0001}",0.0677556516166
64,"{'num_leaves': 255, 'colsample_bytree': 0.7, 'learning_rate': 0.01, 'lambda_l2': 1, 'subsample': 0.8, 'min_data_in_leaf': 70, 'max_bin': 255, 'objective': 'regression_l1', 'min_sum_hessian_in_leaf': 0.001}",0.0677560510736
49,"{'num_leaves': 511, 'colsample_bytree': 0.7, 'learning_rate': 0.01, 'lambda_l2': 2, 'subsample': 0.8, 'min_data_in_leaf': 50, 'max_bin': 127, 'objective': 'regression_l1', 'min_sum_hessian_in_leaf': 0.0001}",0.0677560703096
70,"{'num_leaves': 255, 'colsample_bytree': 0.5, 'learning_rate': 0.01, 'lambda_l2': 2, 'subsample': 0.8, 'min_data_in_leaf': 70, 'max_bin': 127, 'objective': 'regression_l1', 'min_sum_hessian_in_leaf': 0.001}",0.0677563193271
66,"{'num_leaves': 511, 'colsample_bytree': 0.5, 'learning_rate': 0.01, 'lambda_l2': 2, 'subsample': 0.8, 'min_data_in_leaf': 50, 'max_bin': 255, 'objective': 'regression_l1', 'min_sum_hessian_in_leaf': 0.001}",0.0677568143782
81,"{'num_leaves': 255, 'colsample_bytree': 0.7, 'learning_rate': 0.01, 'lambda_l2': 2, 'subsample': 0.8, 'min_data_in_leaf': 50, 'max_bin': 127, 'objective': 'regression_l1', 'min_sum_hessian_in_leaf': 0.0001}",0.0677570157303
58,"{'num_leaves': 255, 'colsample_bytree': 0.7, 'learning_rate': 0.01, 'lambda_l2': 2, 'subsample': 0.8, 'min_data_in_leaf': 70, 'max_bin': 255, 'objective': 'regression_l1', 'min_sum_hessian_in_leaf': 0.001}",0.0677571240599
52,"{'num_leaves': 255, 'colsample_bytree': 0.7, 'learning_rate': 0.01, 'lambda_l2': 1, 'subsample': 0.8, 'min_data_in_leaf': 50, 'max_bin': 127, 'objective': 'regression_l1', 'min_sum_hessian_in_leaf': 0.0001}",0.0677571513674
91,"{'num_leaves': 511, 'colsample_bytree': 0.5, 'learning_rate': 0.01, 'lambda_l2': 2, 'subsample': 0.8, 'min_data_in_leaf': 70, 'max_bin': 255, 'objective': 'regression_l1', 'min_sum_hessian_in_leaf': 0.001}",0.0677599473002
37,"{'num_leaves': 255, 'colsample_bytree': 0.7, 'learning_rate': 0.01, 'lambda_l2': 1, 'subsample': 0.8, 'min_data_in_leaf': 70, 'max_bin': 127, 'objective': 'regression_l1', 'min_sum_hessian_in_leaf': 0.0001}",0.0677600431125
53,"{'num_leaves': 255, 'colsample_bytree': 0.5, 'learning_rate': 0.01, 'lambda_l2': 1, 'subsample': 0.8, 'min_data_in_leaf': 50, 'max_bin': 127, 'objective': 'regression_l1', 'min_sum_hessian_in_leaf': 0.0001}",0.0677609005286
2,"{'num_leaves': 255, 'colsample_bytree': 0.5, 'learning_rate': 0.01, 'lambda_l2': 1, 'subsample': 0.8, 'min_data_in_leaf': 70, 'max_bin': 127, 'objective': 'regression_l1', 'min_sum_hessian_in_leaf': 0.001}",0.0677619931202
33,"{'num_leaves': 255, 'colsample_bytree': 0.7, 'learning_rate': 0.01, 'lambda_l2': 2, 'subsample': 0.8, 'min_data_in_leaf': 50, 'max_bin': 255, 'objective': 'regression_l1', 'min_sum_hessian_in_leaf': 0.0001}",0.0677623907854
69,"{'num_leaves': 511, 'colsample_bytree': 0.5, 'learning_rate': 0.01, 'lambda_l2': 2, 'subsample': 0.8, 'min_data_in_leaf': 70, 'max_bin': 127, 'objective': 'regression_l1', 'min_sum_hessian_in_leaf': 0.0001}",0.0677628444003
26,"{'num_leaves': 255, 'colsample_bytree': 0.7, 'learning_rate': 0.01, 'lambda_l2': 2, 'subsample': 0.8, 'min_data_in_leaf': 50, 'max_bin': 255, 'objective': 'regression_l1', 'min_sum_hessian_in_leaf': 0.001}",0.0677633095721
47,"{'num_leaves': 511, 'colsample_bytree': 0.5, 'learning_rate': 0.01, 'lambda_l2': 1, 'subsample': 0.8, 'min_data_in_leaf': 50, 'max_bin': 255, 'objective': 'regression_l1', 'min_sum_hessian_in_leaf': 0.0001}",0.0677642064648
90,"{'num_leaves': 255, 'colsample_bytree': 0.5, 'learning_rate': 0.01, 'lambda_l2': 1, 'subsample': 0.8, 'min_data_in_leaf': 50, 'max_bin': 127, 'objective': 'regression_l1', 'min_sum_hessian_in_leaf': 0.001}",0.0677644229316
80,"{'num_leaves': 255, 'colsample_bytree': 0.7, 'learning_rate': 0.01, 'lambda_l2': 2, 'subsample': 0.8, 'min_data_in_leaf': 50, 'max_bin': 127, 'objective': 'regression_l1', 'min_sum_hessian_in_leaf': 0.001}",0.0677651404814
27,"{'num_leaves': 255, 'colsample_bytree': 0.5, 'learning_rate': 0.01, 'lambda_l2': 2, 'subsample': 0.8, 'min_data_in_leaf': 50, 'max_bin': 255, 'objective': 'regression_l1', 'min_sum_hessian_in_leaf': 0.001}",0.0677651535759
45,"{'num_leaves': 255, 'colsample_bytree': 0.5, 'learning_rate': 0.01, 'lambda_l2': 1, 'subsample': 0.8, 'min_data_in_leaf': 70, 'max_bin': 255, 'objective': 'regression_l1', 'min_sum_hessian_in_leaf': 0.001}",0.0677652419407
29,"{'num_leaves': 255, 'colsample_bytree': 0.5, 'learning_rate': 0.01, 'lambda_l2': 2, 'subsample': 0.8, 'min_data_in_leaf': 50, 'max_bin': 127, 'objective': 'regression_l1', 'min_sum_hessian_in_leaf': 0.001}",0.0677652990418
62,"{'num_leaves': 511, 'colsample_bytree': 0.5, 'learning_rate': 0.01, 'lambda_l2': 1, 'subsample': 0.8, 'min_data_in_leaf': 70, 'max_bin': 127, 'objective': 'regression_l1', 'min_sum_hessian_in_leaf': 0.001}",0.0677658980734
40,"{'num_leaves': 511, 'colsample_bytree': 0.5, 'learning_rate': 0.01, 'lambda_l2': 1, 'subsample': 0.8, 'min_data_in_leaf': 70, 'max_bin': 255, 'objective': 'regression_l1', 'min_sum_hessian_in_leaf': 0.0001}",0.0677663396935
73,"{'num_leaves': 511, 'colsample_bytree': 0.5, 'learning_rate': 0.01, 'lambda_l2': 1, 'subsample': 0.8, 'min_data_in_leaf': 30, 'max_bin': 127, 'objective': 'regression_l1', 'min_sum_hessian_in_leaf': 0.0001}",0.0677663626234
22,"{'num_leaves': 255, 'colsample_bytree': 0.5, 'learning_rate': 0.01, 'lambda_l2': 1, 'subsample': 0.8, 'min_data_in_leaf': 70, 'max_bin': 255, 'objective': 'regression_l1', 'min_sum_hessian_in_leaf': 0.0001}",0.0677664868297
54,"{'num_leaves': 511, 'colsample_bytree': 0.7, 'learning_rate': 0.01, 'lambda_l2': 1, 'subsample': 0.8, 'min_data_in_leaf': 70, 'max_bin': 127, 'objective': 'regression_l1', 'min_sum_hessian_in_leaf': 0.001}",0.0677667369724
86,"{'num_leaves': 511, 'colsample_bytree': 0.7, 'learning_rate': 0.01, 'lambda_l2': 2, 'subsample': 0.8, 'min_data_in_leaf': 30, 'max_bin': 127, 'objective': 'regression_l1', 'min_sum_hessian_in_leaf': 0.001}",0.067767294164
10,"{'num_leaves': 511, 'colsample_bytree': 0.7, 'learning_rate': 0.01, 'lambda_l2': 1, 'subsample': 0.8, 'min_data_in_leaf': 70, 'max_bin': 127, 'objective': 'regression_l1', 'min_sum_hessian_in_leaf': 0.0001}",0.0677676129408
11,"{'num_leaves': 511, 'colsample_bytree': 0.7, 'learning_rate': 0.01, 'lambda_l2': 1, 'subsample': 0.8, 'min_data_in_leaf': 70, 'max_bin': 255, 'objective': 'regression_l1', 'min_sum_hessian_in_leaf': 0.001}",0.0677684595023
17,"{'num_leaves': 511, 'colsample_bytree': 0.5, 'learning_rate': 0.01, 'lambda_l2': 1, 'subsample': 0.8, 'min_data_in_leaf': 50, 'max_bin': 127, 'objective': 'regression_l1', 'min_sum_hessian_in_leaf': 0.001}",0.0677694053326
8,"{'num_leaves': 255, 'colsample_bytree': 0.7, 'learning_rate': 0.01, 'lambda_l2': 2, 'subsample': 0.8, 'min_data_in_leaf': 70, 'max_bin': 255, 'objective': 'regression_l1', 'min_sum_hessian_in_leaf': 0.0001}",0.0677696245796
1,"{'num_leaves': 511, 'colsample_bytree': 0.7, 'learning_rate': 0.01, 'lambda_l2': 2, 'subsample': 0.8, 'min_data_in_leaf': 70, 'max_bin': 255, 'objective': 'regression_l1', 'min_sum_hessian_in_leaf': 0.0001}",0.0677703224297
65,"{'num_leaves': 255, 'colsample_bytree': 0.7, 'learning_rate': 0.01, 'lambda_l2': 1, 'subsample': 0.8, 'min_data_in_leaf': 50, 'max_bin': 255, 'objective': 'regression_l1', 'min_sum_hessian_in_leaf': 0.0001}",0.0677706483284
46,"{'num_leaves': 511, 'colsample_bytree': 0.5, 'learning_rate': 0.01, 'lambda_l2': 1, 'subsample': 0.8, 'min_data_in_leaf': 50, 'max_bin': 127, 'objective': 'regression_l1', 'min_sum_hessian_in_leaf': 0.0001}",0.0677708506377
18,"{'num_leaves': 511, 'colsample_bytree': 0.5, 'learning_rate': 0.01, 'lambda_l2': 2, 'subsample': 0.8, 'min_data_in_leaf': 70, 'max_bin': 255, 'objective': 'regression_l1', 'min_sum_hessian_in_leaf': 0.0001}",0.0677711555635
16,"{'num_leaves': 511, 'colsample_bytree': 0.7, 'learning_rate': 0.01, 'lambda_l2': 1, 'subsample': 0.8, 'min_data_in_leaf': 50, 'max_bin': 127, 'objective': 'regression_l1', 'min_sum_hessian_in_leaf': 0.0001}",0.0677714360974
25,"{'num_leaves': 511, 'colsample_bytree': 0.7, 'learning_rate': 0.01, 'lambda_l2': 2, 'subsample': 0.8, 'min_data_in_leaf': 50, 'max_bin': 255, 'objective': 'regression_l1', 'min_sum_hessian_in_leaf': 0.0001}",0.0677721782797
87,"{'num_leaves': 511, 'colsample_bytree': 0.7, 'learning_rate': 0.01, 'lambda_l2': 1, 'subsample': 0.8, 'min_data_in_leaf': 50, 'max_bin': 127, 'objective': 'regression_l1', 'min_sum_hessian_in_leaf': 0.001}",0.067773199403
68,"{'num_leaves': 255, 'colsample_bytree': 0.7, 'learning_rate': 0.01, 'lambda_l2': 1, 'subsample': 0.8, 'min_data_in_leaf': 50, 'max_bin': 127, 'objective': 'regression_l1', 'min_sum_hessian_in_leaf': 0.001}",0.0677739943947
94,"{'num_leaves': 255, 'colsample_bytree': 0.5, 'learning_rate': 0.01, 'lambda_l2': 1, 'subsample': 0.8, 'min_data_in_leaf': 50, 'max_bin': 255, 'objective': 'regression_l1', 'min_sum_hessian_in_leaf': 0.001}",0.0677753678054
15,"{'num_leaves': 511, 'colsample_bytree': 0.7, 'learning_rate': 0.01, 'lambda_l2': 2, 'subsample': 0.8, 'min_data_in_leaf': 50, 'max_bin': 127, 'objective': 'regression_l1', 'min_sum_hessian_in_leaf': 0.001}",0.0677754871535
44,"{'num_leaves': 511, 'colsample_bytree': 0.5, 'learning_rate': 0.01, 'lambda_l2': 2, 'subsample': 0.8, 'min_data_in_leaf': 50, 'max_bin': 127, 'objective': 'regression_l1', 'min_sum_hessian_in_leaf': 0.0001}",0.0677763735169
5,"{'num_leaves': 511, 'colsample_bytree': 0.5, 'learning_rate': 0.01, 'lambda_l2': 2, 'subsample': 0.8, 'min_data_in_leaf': 50, 'max_bin': 127, 'objective': 'regression_l1', 'min_sum_hessian_in_leaf': 0.001}",0.0677765132128
79,"{'num_leaves': 511, 'colsample_bytree': 0.7, 'learning_rate': 0.01, 'lambda_l2': 1, 'subsample': 0.8, 'min_data_in_leaf': 70, 'max_bin': 255, 'objective': 'regression_l1', 'min_sum_hessian_in_leaf': 0.0001}",0.0677768305314
74,"{'num_leaves': 511, 'colsample_bytree': 0.7, 'learning_rate': 0.01, 'lambda_l2': 2, 'subsample': 0.8, 'min_data_in_leaf': 70, 'max_bin': 255, 'objective': 'regression_l1', 'min_sum_hessian_in_leaf': 0.001}",0.0677778000494
85,"{'num_leaves': 511, 'colsample_bytree': 0.7, 'learning_rate': 0.01, 'lambda_l2': 2, 'subsample': 0.8, 'min_data_in_leaf': 50, 'max_bin': 255, 'objective': 'regression_l1', 'min_sum_hessian_in_leaf': 0.001}",0.0677788371338
12,"{'num_leaves': 511, 'colsample_bytree': 0.5, 'learning_rate': 0.01, 'lambda_l2': 1, 'subsample': 0.8, 'min_data_in_leaf': 30, 'max_bin': 255, 'objective': 'regression_l1', 'min_sum_hessian_in_leaf': 0.001}",0.0677798410846
34,"{'num_leaves': 255, 'colsample_bytree': 0.7, 'learning_rate': 0.01, 'lambda_l2': 1, 'subsample': 0.8, 'min_data_in_leaf': 30, 'max_bin': 127, 'objective': 'regression_l1', 'min_sum_hessian_in_leaf': 0.001}",0.0677799824759
57,"{'num_leaves': 511, 'colsample_bytree': 0.5, 'learning_rate': 0.01, 'lambda_l2': 2, 'subsample': 0.8, 'min_data_in_leaf': 30, 'max_bin': 255, 'objective': 'regression_l1', 'min_sum_hessian_in_leaf': 0.001}",0.0677809516705
7,"{'num_leaves': 511, 'colsample_bytree': 0.7, 'learning_rate': 0.01, 'lambda_l2': 1, 'subsample': 0.8, 'min_data_in_leaf': 30, 'max_bin': 255, 'objective': 'regression_l1', 'min_sum_hessian_in_leaf': 0.0001}",0.0677818573602
9,"{'num_leaves': 255, 'colsample_bytree': 0.5, 'learning_rate': 0.01, 'lambda_l2': 1, 'subsample': 0.8, 'min_data_in_leaf': 30, 'max_bin': 127, 'objective': 'regression_l1', 'min_sum_hessian_in_leaf': 0.001}",0.0677820798886
0,"{'num_leaves': 255, 'colsample_bytree': 0.5, 'learning_rate': 0.01, 'lambda_l2': 1, 'subsample': 0.8, 'min_data_in_leaf': 30, 'max_bin': 255, 'objective': 'regression_l1', 'min_sum_hessian_in_leaf': 0.001}",0.0677821383967
71,"{'num_leaves': 255, 'colsample_bytree': 0.7, 'learning_rate': 0.01, 'lambda_l2': 1, 'subsample': 0.8, 'min_data_in_leaf': 30, 'max_bin': 255, 'objective': 'regression_l1', 'min_sum_hessian_in_leaf': 0.001}",0.0677822617743
82,"{'num_leaves': 255, 'colsample_bytree': 0.5, 'learning_rate': 0.01, 'lambda_l2': 2, 'subsample': 0.8, 'min_data_in_leaf': 30, 'max_bin': 127, 'objective': 'regression_l1', 'min_sum_hessian_in_leaf': 0.001}",0.0677832245591
20,"{'num_leaves': 255, 'colsample_bytree': 0.5, 'learning_rate': 0.01, 'lambda_l2': 1, 'subsample': 0.8, 'min_data_in_leaf': 30, 'max_bin': 255, 'objective': 'regression_l1', 'min_sum_hessian_in_leaf': 0.0001}",0.0677832667228
43,"{'num_leaves': 511, 'colsample_bytree': 0.7, 'learning_rate': 0.01, 'lambda_l2': 1, 'subsample': 0.8, 'min_data_in_leaf': 30, 'max_bin': 255, 'objective': 'regression_l1', 'min_sum_hessian_in_leaf': 0.001}",0.0677844441685
77,"{'num_leaves': 511, 'colsample_bytree': 0.5, 'learning_rate': 0.01, 'lambda_l2': 2, 'subsample': 0.8, 'min_data_in_leaf': 30, 'max_bin': 255, 'objective': 'regression_l1', 'min_sum_hessian_in_leaf': 0.0001}",0.0677845282739
21,"{'num_leaves': 255, 'colsample_bytree': 0.7, 'learning_rate': 0.01, 'lambda_l2': 2, 'subsample': 0.8, 'min_data_in_leaf': 30, 'max_bin': 255, 'objective': 'regression_l1', 'min_sum_hessian_in_leaf': 0.0001}",0.0677849214945
75,"{'num_leaves': 255, 'colsample_bytree': 0.7, 'learning_rate': 0.01, 'lambda_l2': 2, 'subsample': 0.8, 'min_data_in_leaf': 30, 'max_bin': 127, 'objective': 'regression_l1', 'min_sum_hessian_in_leaf': 0.0001}",0.0677852559349
83,"{'num_leaves': 511, 'colsample_bytree': 0.7, 'learning_rate': 0.01, 'lambda_l2': 2, 'subsample': 0.8, 'min_data_in_leaf': 30, 'max_bin': 255, 'objective': 'regression_l1', 'min_sum_hessian_in_leaf': 0.0001}",0.0677855890248
51,"{'num_leaves': 255, 'colsample_bytree': 0.5, 'learning_rate': 0.01, 'lambda_l2': 1, 'subsample': 0.8, 'min_data_in_leaf': 30, 'max_bin': 127, 'objective': 'regression_l1', 'min_sum_hessian_in_leaf': 0.0001}",0.0677866761009
13,"{'num_leaves': 511, 'colsample_bytree': 0.7, 'learning_rate': 0.01, 'lambda_l2': 2, 'subsample': 0.8, 'min_data_in_leaf': 30, 'max_bin': 255, 'objective': 'regression_l1', 'min_sum_hessian_in_leaf': 0.001}",0.0677873580715
93,"{'num_leaves': 511, 'colsample_bytree': 0.7, 'learning_rate': 0.01, 'lambda_l2': 1, 'subsample': 0.8, 'min_data_in_leaf': 30, 'max_bin': 127, 'objective': 'regression_l1', 'min_sum_hessian_in_leaf': 0.001}",0.0677877562716
88,"{'num_leaves': 511, 'colsample_bytree': 0.5, 'learning_rate': 0.01, 'lambda_l2': 1, 'subsample': 0.8, 'min_data_in_leaf': 30, 'max_bin': 255, 'objective': 'regression_l1', 'min_sum_hessian_in_leaf': 0.0001}",0.0677878209884
60,"{'num_leaves': 255, 'colsample_bytree': 0.5, 'learning_rate': 0.01, 'lambda_l2': 2, 'subsample': 0.8, 'min_data_in_leaf': 50, 'max_bin': 255, 'objective': 'regression_l1', 'min_sum_hessian_in_leaf': 0.0001}",0.0677887885375
39,"{'num_leaves': 511, 'colsample_bytree': 0.7, 'learning_rate': 0.01, 'lambda_l2': 1, 'subsample': 0.8, 'min_data_in_leaf': 30, 'max_bin': 127, 'objective': 'regression_l1', 'min_sum_hessian_in_leaf': 0.0001}",0.067789125608
14,"{'num_leaves': 511, 'colsample_bytree': 0.5, 'learning_rate': 0.01, 'lambda_l2': 1, 'subsample': 0.8, 'min_data_in_leaf': 50, 'max_bin': 255, 'objective': 'regression_l1', 'min_sum_hessian_in_leaf': 0.001}",0.0677894394848
61,"{'num_leaves': 255, 'colsample_bytree': 0.7, 'learning_rate': 0.01, 'lambda_l2': 1, 'subsample': 0.8, 'min_data_in_leaf': 30, 'max_bin': 255, 'objective': 'regression_l1', 'min_sum_hessian_in_leaf': 0.0001}",0.0677918512854
23,"{'num_leaves': 255, 'colsample_bytree': 0.5, 'learning_rate': 0.01, 'lambda_l2': 2, 'subsample': 0.8, 'min_data_in_leaf': 30, 'max_bin': 255, 'objective': 'regression_l1', 'min_sum_hessian_in_leaf': 0.0001}",0.0677919924103
32,"{'num_leaves': 255, 'colsample_bytree': 0.5, 'learning_rate': 0.01, 'lambda_l2': 2, 'subsample': 0.8, 'min_data_in_leaf': 30, 'max_bin': 127, 'objective': 'regression_l1', 'min_sum_hessian_in_leaf': 0.0001}",0.0677922575137
4,"{'num_leaves': 511, 'colsample_bytree': 0.7, 'learning_rate': 0.01, 'lambda_l2': 1, 'subsample': 0.8, 'min_data_in_leaf': 50, 'max_bin': 255, 'objective': 'regression_l1', 'min_sum_hessian_in_leaf': 0.001}",0.0677927041957
56,"{'num_leaves': 511, 'colsample_bytree': 0.7, 'learning_rate': 0.01, 'lambda_l2': 2, 'subsample': 0.8, 'min_data_in_leaf': 30, 'max_bin': 127, 'objective': 'regression_l1', 'min_sum_hessian_in_leaf': 0.0001}",0.0677935620126
35,"{'num_leaves': 511, 'colsample_bytree': 0.5, 'learning_rate': 0.01, 'lambda_l2': 2, 'subsample': 0.8, 'min_data_in_leaf': 30, 'max_bin': 127, 'objective': 'regression_l1', 'min_sum_hessian_in_leaf': 0.0001}",0.0677944924448
78,"{'num_leaves': 255, 'colsample_bytree': 0.7, 'learning_rate': 0.01, 'lambda_l2': 1, 'subsample': 0.8, 'min_data_in_leaf': 30, 'max_bin': 127, 'objective': 'regression_l1', 'min_sum_hessian_in_leaf': 0.0001}",0.0677950588845
55,"{'num_leaves': 511, 'colsample_bytree': 0.5, 'learning_rate': 0.01, 'lambda_l2': 1, 'subsample': 0.8, 'min_data_in_leaf': 30, 'max_bin': 127, 'objective': 'regression_l1', 'min_sum_hessian_in_leaf': 0.001}",0.0677951125452
3,"{'num_leaves': 255, 'colsample_bytree': 0.7, 'learning_rate': 0.01, 'lambda_l2': 2, 'subsample': 0.8, 'min_data_in_leaf': 30, 'max_bin': 127, 'objective': 'regression_l1', 'min_sum_hessian_in_leaf': 0.001}",0.0677985772996
6,"{'num_leaves': 255, 'colsample_bytree': 0.5, 'learning_rate': 0.01, 'lambda_l2': 2, 'subsample': 0.8, 'min_data_in_leaf': 30, 'max_bin': 255, 'objective': 'regression_l1', 'min_sum_hessian_in_leaf': 0.001}",0.0677986272431
63,"{'num_leaves': 511, 'colsample_bytree': 0.5, 'learning_rate': 0.01, 'lambda_l2': 2, 'subsample': 0.8, 'min_data_in_leaf': 30, 'max_bin': 127, 'objective': 'regression_l1', 'min_sum_hessian_in_leaf': 0.001}",0.0677997695346
72,"{'num_leaves': 511, 'colsample_bytree': 0.7, 'learning_rate': 0.01, 'lambda_l2': 1, 'subsample': 0.8, 'min_data_in_leaf': 50, 'max_bin': 255, 'objective': 'regression_l1', 'min_sum_hessian_in_leaf': 0.0001}",0.0678021216556
59,"{'num_leaves': 255, 'colsample_bytree': 0.7, 'learning_rate': 0.01, 'lambda_l2': 2, 'subsample': 0.8, 'min_data_in_leaf': 30, 'max_bin': 255, 'objective': 'regression_l1', 'min_sum_hessian_in_leaf': 0.001}",0.0678153874824
