,params,score
110,"{'num_leaves': 255, 'colsample_bytree': 0.5, 'learning_rate': 0.01, 'lambda_l2': 2, 'subsample': 0.8, 'min_data_in_leaf': 30, 'max_bin': 255, 'objective': 'regression_l1', 'min_sum_hessian_in_leaf': 0.001}",0.0677628500677
119,"{'num_leaves': 255, 'colsample_bytree': 0.7, 'learning_rate': 0.01, 'lambda_l2': 1, 'subsample': 0.8, 'min_data_in_leaf': 30, 'max_bin': 127, 'objective': 'regression_l1', 'min_sum_hessian_in_leaf': 0.001}",0.0677676306848
302,"{'num_leaves': 255, 'colsample_bytree': 0.7, 'learning_rate': 0.01, 'lambda_l2': 2, 'subsample': 0.8, 'min_data_in_leaf': 30, 'max_bin': 127, 'objective': 'regression_l1', 'min_sum_hessian_in_leaf': 0.01}",0.0677712818439
10,"{'num_leaves': 255, 'colsample_bytree': 0.5, 'learning_rate': 0.01, 'lambda_l2': 0, 'subsample': 0.8, 'min_data_in_leaf': 30, 'max_bin': 255, 'objective': 'regression_l1', 'min_sum_hessian_in_leaf': 0.01}",0.0677713649988
234,"{'num_leaves': 255, 'colsample_bytree': 0.5, 'learning_rate': 0.01, 'lambda_l2': 0, 'subsample': 0.8, 'min_data_in_leaf': 30, 'max_bin': 255, 'objective': 'regression_l1', 'min_sum_hessian_in_leaf': 0.1}",0.0677716908945
370,"{'num_leaves': 255, 'colsample_bytree': 0.5, 'learning_rate': 0.01, 'lambda_l2': 0, 'subsample': 0.8, 'min_data_in_leaf': 30, 'max_bin': 255, 'objective': 'regression_l1', 'min_sum_hessian_in_leaf': 0.001}",0.0677732898898
168,"{'num_leaves': 255, 'colsample_bytree': 0.7, 'learning_rate': 0.01, 'lambda_l2': 1, 'subsample': 0.8, 'min_data_in_leaf': 30, 'max_bin': 127, 'objective': 'regression_l1', 'min_sum_hessian_in_leaf': 0.1}",0.0677735540261
11,"{'num_leaves': 255, 'colsample_bytree': 0.5, 'learning_rate': 0.01, 'lambda_l2': 1, 'subsample': 0.8, 'min_data_in_leaf': 30, 'max_bin': 255, 'objective': 'regression_l1', 'min_sum_hessian_in_leaf': 0.01}",0.0677740904317
152,"{'num_leaves': 255, 'colsample_bytree': 0.5, 'learning_rate': 0.01, 'lambda_l2': 1, 'subsample': 0.8, 'min_data_in_leaf': 30, 'max_bin': 127, 'objective': 'regression_l1', 'min_sum_hessian_in_leaf': 0.01}",0.067774323441
348,"{'num_leaves': 255, 'colsample_bytree': 0.5, 'learning_rate': 0.01, 'lambda_l2': 1, 'subsample': 0.8, 'min_data_in_leaf': 30, 'max_bin': 255, 'objective': 'regression_l1', 'min_sum_hessian_in_leaf': 0.001}",0.0677775109777
59,"{'num_leaves': 255, 'colsample_bytree': 0.5, 'learning_rate': 0.01, 'lambda_l2': 2, 'subsample': 0.8, 'min_data_in_leaf': 30, 'max_bin': 127, 'objective': 'regression_l1', 'min_sum_hessian_in_leaf': 0.01}",0.0677797647997
406,"{'num_leaves': 255, 'colsample_bytree': 0.5, 'learning_rate': 0.01, 'lambda_l2': 0, 'subsample': 0.8, 'min_data_in_leaf': 30, 'max_bin': 127, 'objective': 'regression_l1', 'min_sum_hessian_in_leaf': 0.01}",0.0677803083488
416,"{'num_leaves': 127, 'colsample_bytree': 0.7, 'learning_rate': 0.01, 'lambda_l2': 1, 'subsample': 0.8, 'min_data_in_leaf': 30, 'max_bin': 255, 'objective': 'regression_l1', 'min_sum_hessian_in_leaf': 0.1}",0.0677804428409
244,"{'num_leaves': 255, 'colsample_bytree': 0.5, 'learning_rate': 0.01, 'lambda_l2': 0, 'subsample': 0.8, 'min_data_in_leaf': 30, 'max_bin': 127, 'objective': 'regression_l1', 'min_sum_hessian_in_leaf': 0.1}",0.067780970487
43,"{'num_leaves': 127, 'colsample_bytree': 0.5, 'learning_rate': 0.01, 'lambda_l2': 2, 'subsample': 0.8, 'min_data_in_leaf': 30, 'max_bin': 127, 'objective': 'regression_l1', 'min_sum_hessian_in_leaf': 0.01}",0.0677825363333
90,"{'num_leaves': 255, 'colsample_bytree': 0.7, 'learning_rate': 0.01, 'lambda_l2': 0, 'subsample': 0.8, 'min_data_in_leaf': 30, 'max_bin': 255, 'objective': 'regression_l1', 'min_sum_hessian_in_leaf': 0.001}",0.0677827884832
197,"{'num_leaves': 255, 'colsample_bytree': 0.5, 'learning_rate': 0.01, 'lambda_l2': 2, 'subsample': 0.8, 'min_data_in_leaf': 30, 'max_bin': 255, 'objective': 'regression_l1', 'min_sum_hessian_in_leaf': 0.01}",0.0677843990877
373,"{'num_leaves': 255, 'colsample_bytree': 0.5, 'learning_rate': 0.01, 'lambda_l2': 2, 'subsample': 0.5, 'min_data_in_leaf': 30, 'max_bin': 127, 'objective': 'regression_l1', 'min_sum_hessian_in_leaf': 0.1}",0.0677846489865
159,"{'num_leaves': 255, 'colsample_bytree': 0.5, 'learning_rate': 0.01, 'lambda_l2': 2, 'subsample': 0.8, 'min_data_in_leaf': 30, 'max_bin': 255, 'objective': 'regression_l1', 'min_sum_hessian_in_leaf': 0.1}",0.0677850852448
111,"{'num_leaves': 255, 'colsample_bytree': 0.7, 'learning_rate': 0.01, 'lambda_l2': 0, 'subsample': 0.8, 'min_data_in_leaf': 30, 'max_bin': 255, 'objective': 'regression_l1', 'min_sum_hessian_in_leaf': 0.01}",0.0677851859523
214,"{'num_leaves': 255, 'colsample_bytree': 0.7, 'learning_rate': 0.01, 'lambda_l2': 0, 'subsample': 0.8, 'min_data_in_leaf': 30, 'max_bin': 127, 'objective': 'regression_l1', 'min_sum_hessian_in_leaf': 0.1}",0.0677855905129
285,"{'num_leaves': 255, 'colsample_bytree': 0.7, 'learning_rate': 0.01, 'lambda_l2': 1, 'subsample': 0.8, 'min_data_in_leaf': 30, 'max_bin': 255, 'objective': 'regression_l1', 'min_sum_hessian_in_leaf': 0.01}",0.0677857629507
422,"{'num_leaves': 255, 'colsample_bytree': 0.7, 'learning_rate': 0.01, 'lambda_l2': 2, 'subsample': 0.8, 'min_data_in_leaf': 30, 'max_bin': 255, 'objective': 'regression_l1', 'min_sum_hessian_in_leaf': 0.1}",0.0677857709446
372,"{'num_leaves': 255, 'colsample_bytree': 0.5, 'learning_rate': 0.01, 'lambda_l2': 0, 'subsample': 0.8, 'min_data_in_leaf': 30, 'max_bin': 127, 'objective': 'regression_l1', 'min_sum_hessian_in_leaf': 0.001}",0.0677861007377
172,"{'num_leaves': 255, 'colsample_bytree': 0.7, 'learning_rate': 0.01, 'lambda_l2': 2, 'subsample': 0.8, 'min_data_in_leaf': 30, 'max_bin': 127, 'objective': 'regression_l1', 'min_sum_hessian_in_leaf': 0.001}",0.0677866092101
64,"{'num_leaves': 255, 'colsample_bytree': 0.5, 'learning_rate': 0.01, 'lambda_l2': 2, 'subsample': 0.8, 'min_data_in_leaf': 30, 'max_bin': 127, 'objective': 'regression_l1', 'min_sum_hessian_in_leaf': 0.001}",0.0677869509771
405,"{'num_leaves': 255, 'colsample_bytree': 0.5, 'learning_rate': 0.01, 'lambda_l2': 1, 'subsample': 0.8, 'min_data_in_leaf': 30, 'max_bin': 255, 'objective': 'regression_l1', 'min_sum_hessian_in_leaf': 0.1}",0.0677875787389
278,"{'num_leaves': 255, 'colsample_bytree': 0.5, 'learning_rate': 0.01, 'lambda_l2': 1, 'subsample': 0.8, 'min_data_in_leaf': 30, 'max_bin': 127, 'objective': 'regression_l1', 'min_sum_hessian_in_leaf': 0.001}",0.0677891746141
393,"{'num_leaves': 255, 'colsample_bytree': 0.5, 'learning_rate': 0.01, 'lambda_l2': 2, 'subsample': 0.8, 'min_data_in_leaf': 20, 'max_bin': 255, 'objective': 'regression_l1', 'min_sum_hessian_in_leaf': 0.001}",0.0677895738308
423,"{'num_leaves': 127, 'colsample_bytree': 0.5, 'learning_rate': 0.01, 'lambda_l2': 1, 'subsample': 0.8, 'min_data_in_leaf': 30, 'max_bin': 255, 'objective': 'regression_l1', 'min_sum_hessian_in_leaf': 0.1}",0.0677897022564
280,"{'num_leaves': 255, 'colsample_bytree': 0.7, 'learning_rate': 0.01, 'lambda_l2': 2, 'subsample': 0.8, 'min_data_in_leaf': 30, 'max_bin': 255, 'objective': 'regression_l1', 'min_sum_hessian_in_leaf': 0.001}",0.0677902449276
29,"{'num_leaves': 127, 'colsample_bytree': 0.7, 'learning_rate': 0.01, 'lambda_l2': 0, 'subsample': 0.8, 'min_data_in_leaf': 30, 'max_bin': 127, 'objective': 'regression_l1', 'min_sum_hessian_in_leaf': 0.01}",0.0677905563767
124,"{'num_leaves': 255, 'colsample_bytree': 0.5, 'learning_rate': 0.01, 'lambda_l2': 1, 'subsample': 0.5, 'min_data_in_leaf': 30, 'max_bin': 255, 'objective': 'regression_l1', 'min_sum_hessian_in_leaf': 0.1}",0.0677905674265
187,"{'num_leaves': 255, 'colsample_bytree': 0.5, 'learning_rate': 0.01, 'lambda_l2': 2, 'subsample': 0.8, 'min_data_in_leaf': 20, 'max_bin': 127, 'objective': 'regression_l1', 'min_sum_hessian_in_leaf': 0.001}",0.0677910919632
315,"{'num_leaves': 255, 'colsample_bytree': 0.7, 'learning_rate': 0.01, 'lambda_l2': 2, 'subsample': 0.8, 'min_data_in_leaf': 30, 'max_bin': 127, 'objective': 'regression_l1', 'min_sum_hessian_in_leaf': 0.1}",0.0677917780134
268,"{'num_leaves': 127, 'colsample_bytree': 0.7, 'learning_rate': 0.01, 'lambda_l2': 0, 'subsample': 0.8, 'min_data_in_leaf': 30, 'max_bin': 255, 'objective': 'regression_l1', 'min_sum_hessian_in_leaf': 0.1}",0.067792087421
277,"{'num_leaves': 255, 'colsample_bytree': 0.5, 'learning_rate': 0.01, 'lambda_l2': 0, 'subsample': 0.5, 'min_data_in_leaf': 30, 'max_bin': 255, 'objective': 'regression_l1', 'min_sum_hessian_in_leaf': 0.001}",0.0677924679853
205,"{'num_leaves': 255, 'colsample_bytree': 0.5, 'learning_rate': 0.01, 'lambda_l2': 2, 'subsample': 0.8, 'min_data_in_leaf': 30, 'max_bin': 127, 'objective': 'regression_l1', 'min_sum_hessian_in_leaf': 0.1}",0.0677927450489
183,"{'num_leaves': 255, 'colsample_bytree': 0.7, 'learning_rate': 0.01, 'lambda_l2': 2, 'subsample': 0.8, 'min_data_in_leaf': 20, 'max_bin': 127, 'objective': 'regression_l1', 'min_sum_hessian_in_leaf': 0.1}",0.0677934417963
117,"{'num_leaves': 127, 'colsample_bytree': 0.7, 'learning_rate': 0.01, 'lambda_l2': 0, 'subsample': 0.8, 'min_data_in_leaf': 30, 'max_bin': 255, 'objective': 'regression_l1', 'min_sum_hessian_in_leaf': 0.001}",0.0677934753988
321,"{'num_leaves': 255, 'colsample_bytree': 0.5, 'learning_rate': 0.01, 'lambda_l2': 1, 'subsample': 0.8, 'min_data_in_leaf': 30, 'max_bin': 127, 'objective': 'regression_l1', 'min_sum_hessian_in_leaf': 0.1}",0.0677936062596
82,"{'num_leaves': 255, 'colsample_bytree': 0.7, 'learning_rate': 0.01, 'lambda_l2': 1, 'subsample': 0.8, 'min_data_in_leaf': 30, 'max_bin': 127, 'objective': 'regression_l1', 'min_sum_hessian_in_leaf': 0.01}",0.0677938311523
398,"{'num_leaves': 127, 'colsample_bytree': 0.5, 'learning_rate': 0.01, 'lambda_l2': 1, 'subsample': 0.5, 'min_data_in_leaf': 30, 'max_bin': 127, 'objective': 'regression_l1', 'min_sum_hessian_in_leaf': 0.1}",0.067794094018
30,"{'num_leaves': 127, 'colsample_bytree': 0.5, 'learning_rate': 0.01, 'lambda_l2': 2, 'subsample': 0.8, 'min_data_in_leaf': 30, 'max_bin': 255, 'objective': 'regression_l1', 'min_sum_hessian_in_leaf': 0.001}",0.0677943117907
282,"{'num_leaves': 255, 'colsample_bytree': 0.7, 'learning_rate': 0.01, 'lambda_l2': 0, 'subsample': 0.5, 'min_data_in_leaf': 30, 'max_bin': 255, 'objective': 'regression_l1', 'min_sum_hessian_in_leaf': 0.1}",0.0677946175826
229,"{'num_leaves': 255, 'colsample_bytree': 0.5, 'learning_rate': 0.01, 'lambda_l2': 1, 'subsample': 0.5, 'min_data_in_leaf': 30, 'max_bin': 127, 'objective': 'regression_l1', 'min_sum_hessian_in_leaf': 0.1}",0.0677948503998
5,"{'num_leaves': 255, 'colsample_bytree': 0.7, 'learning_rate': 0.01, 'lambda_l2': 1, 'subsample': 0.8, 'min_data_in_leaf': 30, 'max_bin': 255, 'objective': 'regression_l1', 'min_sum_hessian_in_leaf': 0.1}",0.0677955578749
176,"{'num_leaves': 127, 'colsample_bytree': 0.5, 'learning_rate': 0.01, 'lambda_l2': 2, 'subsample': 0.8, 'min_data_in_leaf': 30, 'max_bin': 255, 'objective': 'regression_l1', 'min_sum_hessian_in_leaf': 0.1}",0.06779558858
3,"{'num_leaves': 255, 'colsample_bytree': 0.7, 'learning_rate': 0.01, 'lambda_l2': 0, 'subsample': 0.8, 'min_data_in_leaf': 30, 'max_bin': 127, 'objective': 'regression_l1', 'min_sum_hessian_in_leaf': 0.01}",0.0677956772342
85,"{'num_leaves': 255, 'colsample_bytree': 0.7, 'learning_rate': 0.01, 'lambda_l2': 0, 'subsample': 0.8, 'min_data_in_leaf': 30, 'max_bin': 255, 'objective': 'regression_l1', 'min_sum_hessian_in_leaf': 0.1}",0.0677967013847
144,"{'num_leaves': 255, 'colsample_bytree': 0.5, 'learning_rate': 0.01, 'lambda_l2': 1, 'subsample': 0.5, 'min_data_in_leaf': 30, 'max_bin': 255, 'objective': 'regression_l1', 'min_sum_hessian_in_leaf': 0.001}",0.0677971204126
199,"{'num_leaves': 255, 'colsample_bytree': 0.7, 'learning_rate': 0.01, 'lambda_l2': 2, 'subsample': 0.8, 'min_data_in_leaf': 30, 'max_bin': 255, 'objective': 'regression_l1', 'min_sum_hessian_in_leaf': 0.01}",0.0677981145067
262,"{'num_leaves': 127, 'colsample_bytree': 0.5, 'learning_rate': 0.01, 'lambda_l2': 0, 'subsample': 0.8, 'min_data_in_leaf': 30, 'max_bin': 127, 'objective': 'regression_l1', 'min_sum_hessian_in_leaf': 0.1}",0.0677981719089
171,"{'num_leaves': 127, 'colsample_bytree': 0.7, 'learning_rate': 0.01, 'lambda_l2': 1, 'subsample': 0.8, 'min_data_in_leaf': 30, 'max_bin': 127, 'objective': 'regression_l1', 'min_sum_hessian_in_leaf': 0.1}",0.0677983372767
100,"{'num_leaves': 127, 'colsample_bytree': 0.5, 'learning_rate': 0.01, 'lambda_l2': 2, 'subsample': 0.8, 'min_data_in_leaf': 30, 'max_bin': 255, 'objective': 'regression_l1', 'min_sum_hessian_in_leaf': 0.01}",0.0677987562177
102,"{'num_leaves': 255, 'colsample_bytree': 0.7, 'learning_rate': 0.01, 'lambda_l2': 1, 'subsample': 0.8, 'min_data_in_leaf': 30, 'max_bin': 255, 'objective': 'regression_l1', 'min_sum_hessian_in_leaf': 0.001}",0.0677988674344
299,"{'num_leaves': 127, 'colsample_bytree': 0.5, 'learning_rate': 0.01, 'lambda_l2': 0, 'subsample': 0.8, 'min_data_in_leaf': 30, 'max_bin': 255, 'objective': 'regression_l1', 'min_sum_hessian_in_leaf': 0.001}",0.0677992180219
338,"{'num_leaves': 255, 'colsample_bytree': 0.5, 'learning_rate': 0.01, 'lambda_l2': 1, 'subsample': 0.8, 'min_data_in_leaf': 20, 'max_bin': 255, 'objective': 'regression_l1', 'min_sum_hessian_in_leaf': 0.1}",0.0677996744868
418,"{'num_leaves': 127, 'colsample_bytree': 0.5, 'learning_rate': 0.01, 'lambda_l2': 1, 'subsample': 0.8, 'min_data_in_leaf': 30, 'max_bin': 127, 'objective': 'regression_l1', 'min_sum_hessian_in_leaf': 0.01}",0.0677996886684
318,"{'num_leaves': 255, 'colsample_bytree': 0.7, 'learning_rate': 0.01, 'lambda_l2': 0, 'subsample': 0.5, 'min_data_in_leaf': 30, 'max_bin': 127, 'objective': 'regression_l1', 'min_sum_hessian_in_leaf': 0.01}",0.0677999112014
334,"{'num_leaves': 127, 'colsample_bytree': 0.7, 'learning_rate': 0.01, 'lambda_l2': 1, 'subsample': 0.8, 'min_data_in_leaf': 30, 'max_bin': 255, 'objective': 'regression_l1', 'min_sum_hessian_in_leaf': 0.001}",0.0677999291279
413,"{'num_leaves': 255, 'colsample_bytree': 0.7, 'learning_rate': 0.01, 'lambda_l2': 0, 'subsample': 0.8, 'min_data_in_leaf': 20, 'max_bin': 127, 'objective': 'regression_l1', 'min_sum_hessian_in_leaf': 0.1}",0.0678002473857
184,"{'num_leaves': 127, 'colsample_bytree': 0.5, 'learning_rate': 0.01, 'lambda_l2': 1, 'subsample': 0.8, 'min_data_in_leaf': 30, 'max_bin': 255, 'objective': 'regression_l1', 'min_sum_hessian_in_leaf': 0.001}",0.0678006858661
198,"{'num_leaves': 255, 'colsample_bytree': 0.5, 'learning_rate': 0.01, 'lambda_l2': 1, 'subsample': 0.8, 'min_data_in_leaf': 20, 'max_bin': 127, 'objective': 'regression_l1', 'min_sum_hessian_in_leaf': 0.01}",0.0678008486531
115,"{'num_leaves': 255, 'colsample_bytree': 0.5, 'learning_rate': 0.01, 'lambda_l2': 0, 'subsample': 0.5, 'min_data_in_leaf': 30, 'max_bin': 127, 'objective': 'regression_l1', 'min_sum_hessian_in_leaf': 0.01}",0.0678009919681
415,"{'num_leaves': 127, 'colsample_bytree': 0.7, 'learning_rate': 0.01, 'lambda_l2': 1, 'subsample': 0.8, 'min_data_in_leaf': 30, 'max_bin': 127, 'objective': 'regression_l1', 'min_sum_hessian_in_leaf': 0.001}",0.0678012196671
39,"{'num_leaves': 255, 'colsample_bytree': 0.5, 'learning_rate': 0.01, 'lambda_l2': 2, 'subsample': 0.5, 'min_data_in_leaf': 30, 'max_bin': 127, 'objective': 'regression_l1', 'min_sum_hessian_in_leaf': 0.001}",0.0678012261921
44,"{'num_leaves': 255, 'colsample_bytree': 0.7, 'learning_rate': 0.01, 'lambda_l2': 1, 'subsample': 0.8, 'min_data_in_leaf': 20, 'max_bin': 255, 'objective': 'regression_l1', 'min_sum_hessian_in_leaf': 0.01}",0.0678012530843
178,"{'num_leaves': 255, 'colsample_bytree': 0.5, 'learning_rate': 0.01, 'lambda_l2': 2, 'subsample': 0.5, 'min_data_in_leaf': 30, 'max_bin': 255, 'objective': 'regression_l1', 'min_sum_hessian_in_leaf': 0.01}",0.067801353101
33,"{'num_leaves': 255, 'colsample_bytree': 0.5, 'learning_rate': 0.01, 'lambda_l2': 2, 'subsample': 0.5, 'min_data_in_leaf': 30, 'max_bin': 255, 'objective': 'regression_l1', 'min_sum_hessian_in_leaf': 0.1}",0.0678019444251
427,"{'num_leaves': 127, 'colsample_bytree': 0.5, 'learning_rate': 0.01, 'lambda_l2': 0, 'subsample': 0.8, 'min_data_in_leaf': 30, 'max_bin': 255, 'objective': 'regression_l1', 'min_sum_hessian_in_leaf': 0.01}",0.0678019453187
189,"{'num_leaves': 255, 'colsample_bytree': 0.5, 'learning_rate': 0.01, 'lambda_l2': 2, 'subsample': 0.5, 'min_data_in_leaf': 30, 'max_bin': 127, 'objective': 'regression_l1', 'min_sum_hessian_in_leaf': 0.01}",0.0678022183017
143,"{'num_leaves': 255, 'colsample_bytree': 0.5, 'learning_rate': 0.01, 'lambda_l2': 1, 'subsample': 0.8, 'min_data_in_leaf': 20, 'max_bin': 127, 'objective': 'regression_l1', 'min_sum_hessian_in_leaf': 0.1}",0.0678024518776
353,"{'num_leaves': 255, 'colsample_bytree': 0.7, 'learning_rate': 0.01, 'lambda_l2': 0, 'subsample': 0.8, 'min_data_in_leaf': 30, 'max_bin': 127, 'objective': 'regression_l1', 'min_sum_hessian_in_leaf': 0.001}",0.0678024539767
399,"{'num_leaves': 255, 'colsample_bytree': 0.7, 'learning_rate': 0.01, 'lambda_l2': 0, 'subsample': 0.5, 'min_data_in_leaf': 30, 'max_bin': 127, 'objective': 'regression_l1', 'min_sum_hessian_in_leaf': 0.001}",0.0678025100398
192,"{'num_leaves': 255, 'colsample_bytree': 0.5, 'learning_rate': 0.01, 'lambda_l2': 0, 'subsample': 0.5, 'min_data_in_leaf': 30, 'max_bin': 255, 'objective': 'regression_l1', 'min_sum_hessian_in_leaf': 0.01}",0.0678027115778
116,"{'num_leaves': 127, 'colsample_bytree': 0.7, 'learning_rate': 0.01, 'lambda_l2': 0, 'subsample': 0.8, 'min_data_in_leaf': 30, 'max_bin': 127, 'objective': 'regression_l1', 'min_sum_hessian_in_leaf': 0.001}",0.0678028537147
231,"{'num_leaves': 255, 'colsample_bytree': 0.5, 'learning_rate': 0.01, 'lambda_l2': 2, 'subsample': 0.8, 'min_data_in_leaf': 20, 'max_bin': 127, 'objective': 'regression_l1', 'min_sum_hessian_in_leaf': 0.1}",0.0678031948765
131,"{'num_leaves': 255, 'colsample_bytree': 0.7, 'learning_rate': 0.01, 'lambda_l2': 1, 'subsample': 0.5, 'min_data_in_leaf': 30, 'max_bin': 255, 'objective': 'regression_l1', 'min_sum_hessian_in_leaf': 0.1}",0.0678036983381
96,"{'num_leaves': 255, 'colsample_bytree': 0.5, 'learning_rate': 0.01, 'lambda_l2': 1, 'subsample': 0.5, 'min_data_in_leaf': 30, 'max_bin': 127, 'objective': 'regression_l1', 'min_sum_hessian_in_leaf': 0.001}",0.067805152448
331,"{'num_leaves': 127, 'colsample_bytree': 0.7, 'learning_rate': 0.01, 'lambda_l2': 0, 'subsample': 0.8, 'min_data_in_leaf': 30, 'max_bin': 255, 'objective': 'regression_l1', 'min_sum_hessian_in_leaf': 0.01}",0.0678051979695
63,"{'num_leaves': 127, 'colsample_bytree': 0.7, 'learning_rate': 0.01, 'lambda_l2': 1, 'subsample': 0.8, 'min_data_in_leaf': 30, 'max_bin': 127, 'objective': 'regression_l1', 'min_sum_hessian_in_leaf': 0.01}",0.0678054144912
142,"{'num_leaves': 127, 'colsample_bytree': 0.7, 'learning_rate': 0.01, 'lambda_l2': 1, 'subsample': 0.5, 'min_data_in_leaf': 30, 'max_bin': 127, 'objective': 'regression_l1', 'min_sum_hessian_in_leaf': 0.001}",0.0678054356973
351,"{'num_leaves': 127, 'colsample_bytree': 0.5, 'learning_rate': 0.01, 'lambda_l2': 2, 'subsample': 0.8, 'min_data_in_leaf': 30, 'max_bin': 127, 'objective': 'regression_l1', 'min_sum_hessian_in_leaf': 0.001}",0.0678057011945
400,"{'num_leaves': 255, 'colsample_bytree': 0.7, 'learning_rate': 0.01, 'lambda_l2': 1, 'subsample': 0.5, 'min_data_in_leaf': 30, 'max_bin': 127, 'objective': 'regression_l1', 'min_sum_hessian_in_leaf': 0.001}",0.0678059494926
137,"{'num_leaves': 255, 'colsample_bytree': 0.7, 'learning_rate': 0.01, 'lambda_l2': 2, 'subsample': 0.8, 'min_data_in_leaf': 20, 'max_bin': 127, 'objective': 'regression_l1', 'min_sum_hessian_in_leaf': 0.01}",0.0678061829628
125,"{'num_leaves': 255, 'colsample_bytree': 0.5, 'learning_rate': 0.01, 'lambda_l2': 0, 'subsample': 0.8, 'min_data_in_leaf': 20, 'max_bin': 255, 'objective': 'regression_l1', 'min_sum_hessian_in_leaf': 0.01}",0.0678062049308
276,"{'num_leaves': 255, 'colsample_bytree': 0.7, 'learning_rate': 0.01, 'lambda_l2': 1, 'subsample': 0.5, 'min_data_in_leaf': 30, 'max_bin': 255, 'objective': 'regression_l1', 'min_sum_hessian_in_leaf': 0.001}",0.0678063471522
181,"{'num_leaves': 127, 'colsample_bytree': 0.7, 'learning_rate': 0.01, 'lambda_l2': 2, 'subsample': 0.8, 'min_data_in_leaf': 30, 'max_bin': 127, 'objective': 'regression_l1', 'min_sum_hessian_in_leaf': 0.1}",0.0678064029049
288,"{'num_leaves': 255, 'colsample_bytree': 0.7, 'learning_rate': 0.01, 'lambda_l2': 2, 'subsample': 0.5, 'min_data_in_leaf': 30, 'max_bin': 255, 'objective': 'regression_l1', 'min_sum_hessian_in_leaf': 0.1}",0.067806486217
6,"{'num_leaves': 255, 'colsample_bytree': 0.5, 'learning_rate': 0.01, 'lambda_l2': 1, 'subsample': 0.5, 'min_data_in_leaf': 30, 'max_bin': 127, 'objective': 'regression_l1', 'min_sum_hessian_in_leaf': 0.01}",0.0678065108381
180,"{'num_leaves': 255, 'colsample_bytree': 0.7, 'learning_rate': 0.01, 'lambda_l2': 2, 'subsample': 0.5, 'min_data_in_leaf': 30, 'max_bin': 127, 'objective': 'regression_l1', 'min_sum_hessian_in_leaf': 0.01}",0.0678069953585
84,"{'num_leaves': 255, 'colsample_bytree': 0.5, 'learning_rate': 0.01, 'lambda_l2': 0, 'subsample': 0.5, 'min_data_in_leaf': 30, 'max_bin': 127, 'objective': 'regression_l1', 'min_sum_hessian_in_leaf': 0.001}",0.0678073918503
106,"{'num_leaves': 255, 'colsample_bytree': 0.7, 'learning_rate': 0.01, 'lambda_l2': 0, 'subsample': 0.5, 'min_data_in_leaf': 30, 'max_bin': 127, 'objective': 'regression_l1', 'min_sum_hessian_in_leaf': 0.1}",0.0678079026884
31,"{'num_leaves': 127, 'colsample_bytree': 0.7, 'learning_rate': 0.01, 'lambda_l2': 1, 'subsample': 0.8, 'min_data_in_leaf': 30, 'max_bin': 255, 'objective': 'regression_l1', 'min_sum_hessian_in_leaf': 0.01}",0.0678084361565
402,"{'num_leaves': 127, 'colsample_bytree': 0.5, 'learning_rate': 0.01, 'lambda_l2': 0, 'subsample': 0.8, 'min_data_in_leaf': 30, 'max_bin': 127, 'objective': 'regression_l1', 'min_sum_hessian_in_leaf': 0.001}",0.0678086697308
0,"{'num_leaves': 255, 'colsample_bytree': 0.5, 'learning_rate': 0.01, 'lambda_l2': 2, 'subsample': 0.5, 'min_data_in_leaf': 30, 'max_bin': 255, 'objective': 'regression_l1', 'min_sum_hessian_in_leaf': 0.001}",0.0678092654631
135,"{'num_leaves': 255, 'colsample_bytree': 0.7, 'learning_rate': 0.01, 'lambda_l2': 2, 'subsample': 0.8, 'min_data_in_leaf': 20, 'max_bin': 255, 'objective': 'regression_l1', 'min_sum_hessian_in_leaf': 0.01}",0.0678094355346
14,"{'num_leaves': 255, 'colsample_bytree': 0.7, 'learning_rate': 0.01, 'lambda_l2': 2, 'subsample': 0.5, 'min_data_in_leaf': 30, 'max_bin': 127, 'objective': 'regression_l1', 'min_sum_hessian_in_leaf': 0.1}",0.0678094518275
185,"{'num_leaves': 127, 'colsample_bytree': 0.5, 'learning_rate': 0.01, 'lambda_l2': 2, 'subsample': 0.5, 'min_data_in_leaf': 30, 'max_bin': 255, 'objective': 'regression_l1', 'min_sum_hessian_in_leaf': 0.01}",0.0678095439176
47,"{'num_leaves': 255, 'colsample_bytree': 0.7, 'learning_rate': 0.01, 'lambda_l2': 2, 'subsample': 0.5, 'min_data_in_leaf': 20, 'max_bin': 127, 'objective': 'regression_l1', 'min_sum_hessian_in_leaf': 0.01}",0.0678096306609
147,"{'num_leaves': 255, 'colsample_bytree': 0.7, 'learning_rate': 0.01, 'lambda_l2': 0, 'subsample': 0.8, 'min_data_in_leaf': 20, 'max_bin': 127, 'objective': 'regression_l1', 'min_sum_hessian_in_leaf': 0.01}",0.067809881453
41,"{'num_leaves': 255, 'colsample_bytree': 0.7, 'learning_rate': 0.01, 'lambda_l2': 1, 'subsample': 0.8, 'min_data_in_leaf': 20, 'max_bin': 127, 'objective': 'regression_l1', 'min_sum_hessian_in_leaf': 0.001}",0.0678100459782
283,"{'num_leaves': 255, 'colsample_bytree': 0.5, 'learning_rate': 0.01, 'lambda_l2': 1, 'subsample': 0.5, 'min_data_in_leaf': 30, 'max_bin': 255, 'objective': 'regression_l1', 'min_sum_hessian_in_leaf': 0.01}",0.0678101214314
275,"{'num_leaves': 127, 'colsample_bytree': 0.5, 'learning_rate': 0.01, 'lambda_l2': 1, 'subsample': 0.8, 'min_data_in_leaf': 30, 'max_bin': 255, 'objective': 'regression_l1', 'min_sum_hessian_in_leaf': 0.01}",0.0678101536718
177,"{'num_leaves': 255, 'colsample_bytree': 0.5, 'learning_rate': 0.01, 'lambda_l2': 1, 'subsample': 0.8, 'min_data_in_leaf': 20, 'max_bin': 255, 'objective': 'regression_l1', 'min_sum_hessian_in_leaf': 0.001}",0.0678101679902
129,"{'num_leaves': 255, 'colsample_bytree': 0.7, 'learning_rate': 0.01, 'lambda_l2': 1, 'subsample': 0.5, 'min_data_in_leaf': 30, 'max_bin': 127, 'objective': 'regression_l1', 'min_sum_hessian_in_leaf': 0.01}",0.0678103312889
40,"{'num_leaves': 255, 'colsample_bytree': 0.5, 'learning_rate': 0.01, 'lambda_l2': 1, 'subsample': 0.5, 'min_data_in_leaf': 20, 'max_bin': 127, 'objective': 'regression_l1', 'min_sum_hessian_in_leaf': 0.01}",0.067810334895
112,"{'num_leaves': 255, 'colsample_bytree': 0.7, 'learning_rate': 0.01, 'lambda_l2': 2, 'subsample': 0.8, 'min_data_in_leaf': 20, 'max_bin': 127, 'objective': 'regression_l1', 'min_sum_hessian_in_leaf': 0.001}",0.0678103369844
37,"{'num_leaves': 255, 'colsample_bytree': 0.5, 'learning_rate': 0.01, 'lambda_l2': 0, 'subsample': 0.5, 'min_data_in_leaf': 30, 'max_bin': 255, 'objective': 'regression_l1', 'min_sum_hessian_in_leaf': 0.1}",0.0678104984438
17,"{'num_leaves': 255, 'colsample_bytree': 0.5, 'learning_rate': 0.01, 'lambda_l2': 2, 'subsample': 0.8, 'min_data_in_leaf': 20, 'max_bin': 255, 'objective': 'regression_l1', 'min_sum_hessian_in_leaf': 0.1}",0.0678105900175
8,"{'num_leaves': 255, 'colsample_bytree': 0.7, 'learning_rate': 0.01, 'lambda_l2': 2, 'subsample': 0.5, 'min_data_in_leaf': 30, 'max_bin': 255, 'objective': 'regression_l1', 'min_sum_hessian_in_leaf': 0.001}",0.0678111362456
174,"{'num_leaves': 127, 'colsample_bytree': 0.5, 'learning_rate': 0.01, 'lambda_l2': 1, 'subsample': 0.5, 'min_data_in_leaf': 30, 'max_bin': 127, 'objective': 'regression_l1', 'min_sum_hessian_in_leaf': 0.001}",0.0678113907076
316,"{'num_leaves': 255, 'colsample_bytree': 0.5, 'learning_rate': 0.01, 'lambda_l2': 0, 'subsample': 0.5, 'min_data_in_leaf': 30, 'max_bin': 127, 'objective': 'regression_l1', 'min_sum_hessian_in_leaf': 0.1}",0.0678115178445
200,"{'num_leaves': 127, 'colsample_bytree': 0.5, 'learning_rate': 0.01, 'lambda_l2': 1, 'subsample': 0.8, 'min_data_in_leaf': 20, 'max_bin': 127, 'objective': 'regression_l1', 'min_sum_hessian_in_leaf': 0.1}",0.0678116019385
1,"{'num_leaves': 255, 'colsample_bytree': 0.7, 'learning_rate': 0.01, 'lambda_l2': 2, 'subsample': 0.8, 'min_data_in_leaf': 20, 'max_bin': 255, 'objective': 'regression_l1', 'min_sum_hessian_in_leaf': 0.001}",0.0678117625283
16,"{'num_leaves': 127, 'colsample_bytree': 0.7, 'learning_rate': 0.01, 'lambda_l2': 2, 'subsample': 0.8, 'min_data_in_leaf': 30, 'max_bin': 127, 'objective': 'regression_l1', 'min_sum_hessian_in_leaf': 0.01}",0.0678118706571
264,"{'num_leaves': 255, 'colsample_bytree': 0.7, 'learning_rate': 0.01, 'lambda_l2': 2, 'subsample': 0.5, 'min_data_in_leaf': 30, 'max_bin': 255, 'objective': 'regression_l1', 'min_sum_hessian_in_leaf': 0.01}",0.0678120154311
395,"{'num_leaves': 255, 'colsample_bytree': 0.5, 'learning_rate': 0.01, 'lambda_l2': 2, 'subsample': 0.8, 'min_data_in_leaf': 20, 'max_bin': 255, 'objective': 'regression_l1', 'min_sum_hessian_in_leaf': 0.01}",0.0678121643969
153,"{'num_leaves': 255, 'colsample_bytree': 0.5, 'learning_rate': 0.01, 'lambda_l2': 0, 'subsample': 0.8, 'min_data_in_leaf': 20, 'max_bin': 255, 'objective': 'regression_l1', 'min_sum_hessian_in_leaf': 0.1}",0.0678121792776
58,"{'num_leaves': 255, 'colsample_bytree': 0.5, 'learning_rate': 0.01, 'lambda_l2': 1, 'subsample': 0.8, 'min_data_in_leaf': 20, 'max_bin': 255, 'objective': 'regression_l1', 'min_sum_hessian_in_leaf': 0.01}",0.067812198811
120,"{'num_leaves': 127, 'colsample_bytree': 0.5, 'learning_rate': 0.01, 'lambda_l2': 0, 'subsample': 0.8, 'min_data_in_leaf': 20, 'max_bin': 255, 'objective': 'regression_l1', 'min_sum_hessian_in_leaf': 0.01}",0.067812549982
20,"{'num_leaves': 255, 'colsample_bytree': 0.7, 'learning_rate': 0.01, 'lambda_l2': 2, 'subsample': 0.5, 'min_data_in_leaf': 30, 'max_bin': 127, 'objective': 'regression_l1', 'min_sum_hessian_in_leaf': 0.001}",0.0678127188638
194,"{'num_leaves': 255, 'colsample_bytree': 0.7, 'learning_rate': 0.01, 'lambda_l2': 0, 'subsample': 0.8, 'min_data_in_leaf': 20, 'max_bin': 255, 'objective': 'regression_l1', 'min_sum_hessian_in_leaf': 0.01}",0.0678130029272
191,"{'num_leaves': 127, 'colsample_bytree': 0.7, 'learning_rate': 0.01, 'lambda_l2': 2, 'subsample': 0.8, 'min_data_in_leaf': 30, 'max_bin': 255, 'objective': 'regression_l1', 'min_sum_hessian_in_leaf': 0.001}",0.0678130796924
45,"{'num_leaves': 127, 'colsample_bytree': 0.5, 'learning_rate': 0.01, 'lambda_l2': 0, 'subsample': 0.5, 'min_data_in_leaf': 30, 'max_bin': 127, 'objective': 'regression_l1', 'min_sum_hessian_in_leaf': 0.1}",0.0678131310886
403,"{'num_leaves': 255, 'colsample_bytree': 0.7, 'learning_rate': 0.01, 'lambda_l2': 0, 'subsample': 0.8, 'min_data_in_leaf': 20, 'max_bin': 255, 'objective': 'regression_l1', 'min_sum_hessian_in_leaf': 0.001}",0.0678133013664
335,"{'num_leaves': 127, 'colsample_bytree': 0.7, 'learning_rate': 0.01, 'lambda_l2': 2, 'subsample': 0.8, 'min_data_in_leaf': 30, 'max_bin': 127, 'objective': 'regression_l1', 'min_sum_hessian_in_leaf': 0.001}",0.0678133089748
123,"{'num_leaves': 127, 'colsample_bytree': 0.7, 'learning_rate': 0.01, 'lambda_l2': 1, 'subsample': 0.8, 'min_data_in_leaf': 20, 'max_bin': 127, 'objective': 'regression_l1', 'min_sum_hessian_in_leaf': 0.1}",0.067813657263
103,"{'num_leaves': 255, 'colsample_bytree': 0.5, 'learning_rate': 0.01, 'lambda_l2': 0, 'subsample': 0.8, 'min_data_in_leaf': 20, 'max_bin': 255, 'objective': 'regression_l1', 'min_sum_hessian_in_leaf': 0.001}",0.0678136612902
330,"{'num_leaves': 255, 'colsample_bytree': 0.5, 'learning_rate': 0.01, 'lambda_l2': 1, 'subsample': 0.5, 'min_data_in_leaf': 20, 'max_bin': 255, 'objective': 'regression_l1', 'min_sum_hessian_in_leaf': 0.001}",0.0678136941642
324,"{'num_leaves': 127, 'colsample_bytree': 0.5, 'learning_rate': 0.01, 'lambda_l2': 2, 'subsample': 0.8, 'min_data_in_leaf': 30, 'max_bin': 127, 'objective': 'regression_l1', 'min_sum_hessian_in_leaf': 0.1}",0.0678137791954
326,"{'num_leaves': 255, 'colsample_bytree': 0.7, 'learning_rate': 0.01, 'lambda_l2': 1, 'subsample': 0.5, 'min_data_in_leaf': 30, 'max_bin': 127, 'objective': 'regression_l1', 'min_sum_hessian_in_leaf': 0.1}",0.0678143112007
327,"{'num_leaves': 127, 'colsample_bytree': 0.5, 'learning_rate': 0.01, 'lambda_l2': 2, 'subsample': 0.5, 'min_data_in_leaf': 30, 'max_bin': 127, 'objective': 'regression_l1', 'min_sum_hessian_in_leaf': 0.001}",0.0678147912499
57,"{'num_leaves': 255, 'colsample_bytree': 0.7, 'learning_rate': 0.01, 'lambda_l2': 0, 'subsample': 0.8, 'min_data_in_leaf': 20, 'max_bin': 255, 'objective': 'regression_l1', 'min_sum_hessian_in_leaf': 0.1}",0.0678150565234
228,"{'num_leaves': 255, 'colsample_bytree': 0.7, 'learning_rate': 0.01, 'lambda_l2': 2, 'subsample': 0.8, 'min_data_in_leaf': 20, 'max_bin': 255, 'objective': 'regression_l1', 'min_sum_hessian_in_leaf': 0.1}",0.0678151973836
350,"{'num_leaves': 127, 'colsample_bytree': 0.5, 'learning_rate': 0.01, 'lambda_l2': 0, 'subsample': 0.5, 'min_data_in_leaf': 30, 'max_bin': 255, 'objective': 'regression_l1', 'min_sum_hessian_in_leaf': 0.01}",0.0678152477876
65,"{'num_leaves': 255, 'colsample_bytree': 0.5, 'learning_rate': 0.01, 'lambda_l2': 0, 'subsample': 0.8, 'min_data_in_leaf': 20, 'max_bin': 127, 'objective': 'regression_l1', 'min_sum_hessian_in_leaf': 0.001}",0.0678156163393
169,"{'num_leaves': 127, 'colsample_bytree': 0.7, 'learning_rate': 0.01, 'lambda_l2': 0, 'subsample': 0.8, 'min_data_in_leaf': 30, 'max_bin': 127, 'objective': 'regression_l1', 'min_sum_hessian_in_leaf': 0.1}",0.0678156242395
336,"{'num_leaves': 255, 'colsample_bytree': 0.7, 'learning_rate': 0.01, 'lambda_l2': 1, 'subsample': 0.8, 'min_data_in_leaf': 20, 'max_bin': 255, 'objective': 'regression_l1', 'min_sum_hessian_in_leaf': 0.1}",0.0678157768069
354,"{'num_leaves': 127, 'colsample_bytree': 0.5, 'learning_rate': 0.01, 'lambda_l2': 1, 'subsample': 0.8, 'min_data_in_leaf': 30, 'max_bin': 127, 'objective': 'regression_l1', 'min_sum_hessian_in_leaf': 0.1}",0.0678158527234
237,"{'num_leaves': 255, 'colsample_bytree': 0.7, 'learning_rate': 0.01, 'lambda_l2': 1, 'subsample': 0.8, 'min_data_in_leaf': 20, 'max_bin': 127, 'objective': 'regression_l1', 'min_sum_hessian_in_leaf': 0.1}",0.0678161215601
132,"{'num_leaves': 255, 'colsample_bytree': 0.5, 'learning_rate': 0.01, 'lambda_l2': 2, 'subsample': 0.5, 'min_data_in_leaf': 20, 'max_bin': 127, 'objective': 'regression_l1', 'min_sum_hessian_in_leaf': 0.1}",0.0678162995507
210,"{'num_leaves': 255, 'colsample_bytree': 0.5, 'learning_rate': 0.01, 'lambda_l2': 2, 'subsample': 0.5, 'min_data_in_leaf': 20, 'max_bin': 127, 'objective': 'regression_l1', 'min_sum_hessian_in_leaf': 0.01}",0.0678163357563
186,"{'num_leaves': 127, 'colsample_bytree': 0.7, 'learning_rate': 0.01, 'lambda_l2': 2, 'subsample': 0.5, 'min_data_in_leaf': 30, 'max_bin': 127, 'objective': 'regression_l1', 'min_sum_hessian_in_leaf': 0.01}",0.0678168601742
248,"{'num_leaves': 127, 'colsample_bytree': 0.5, 'learning_rate': 0.01, 'lambda_l2': 2, 'subsample': 0.8, 'min_data_in_leaf': 20, 'max_bin': 127, 'objective': 'regression_l1', 'min_sum_hessian_in_leaf': 0.001}",0.0678172004816
292,"{'num_leaves': 255, 'colsample_bytree': 0.5, 'learning_rate': 0.01, 'lambda_l2': 0, 'subsample': 0.8, 'min_data_in_leaf': 20, 'max_bin': 127, 'objective': 'regression_l1', 'min_sum_hessian_in_leaf': 0.01}",0.067817222068
98,"{'num_leaves': 127, 'colsample_bytree': 0.5, 'learning_rate': 0.01, 'lambda_l2': 0, 'subsample': 0.8, 'min_data_in_leaf': 30, 'max_bin': 255, 'objective': 'regression_l1', 'min_sum_hessian_in_leaf': 0.1}",0.0678172233718
255,"{'num_leaves': 127, 'colsample_bytree': 0.5, 'learning_rate': 0.01, 'lambda_l2': 1, 'subsample': 0.8, 'min_data_in_leaf': 30, 'max_bin': 127, 'objective': 'regression_l1', 'min_sum_hessian_in_leaf': 0.001}",0.0678176973098
431,"{'num_leaves': 127, 'colsample_bytree': 0.5, 'learning_rate': 0.01, 'lambda_l2': 0, 'subsample': 0.5, 'min_data_in_leaf': 30, 'max_bin': 127, 'objective': 'regression_l1', 'min_sum_hessian_in_leaf': 0.001}",0.0678177017526
66,"{'num_leaves': 127, 'colsample_bytree': 0.5, 'learning_rate': 0.01, 'lambda_l2': 2, 'subsample': 0.8, 'min_data_in_leaf': 20, 'max_bin': 127, 'objective': 'regression_l1', 'min_sum_hessian_in_leaf': 0.1}",0.0678178568366
155,"{'num_leaves': 127, 'colsample_bytree': 0.7, 'learning_rate': 0.01, 'lambda_l2': 2, 'subsample': 0.8, 'min_data_in_leaf': 30, 'max_bin': 255, 'objective': 'regression_l1', 'min_sum_hessian_in_leaf': 0.01}",0.067817929918
367,"{'num_leaves': 127, 'colsample_bytree': 0.5, 'learning_rate': 0.01, 'lambda_l2': 2, 'subsample': 0.5, 'min_data_in_leaf': 30, 'max_bin': 255, 'objective': 'regression_l1', 'min_sum_hessian_in_leaf': 0.001}",0.0678181973471
311,"{'num_leaves': 127, 'colsample_bytree': 0.5, 'learning_rate': 0.01, 'lambda_l2': 0, 'subsample': 0.8, 'min_data_in_leaf': 30, 'max_bin': 127, 'objective': 'regression_l1', 'min_sum_hessian_in_leaf': 0.01}",0.0678182019778
71,"{'num_leaves': 127, 'colsample_bytree': 0.5, 'learning_rate': 0.01, 'lambda_l2': 1, 'subsample': 0.8, 'min_data_in_leaf': 20, 'max_bin': 127, 'objective': 'regression_l1', 'min_sum_hessian_in_leaf': 0.001}",0.0678189634844
220,"{'num_leaves': 127, 'colsample_bytree': 0.5, 'learning_rate': 0.01, 'lambda_l2': 2, 'subsample': 0.5, 'min_data_in_leaf': 30, 'max_bin': 127, 'objective': 'regression_l1', 'min_sum_hessian_in_leaf': 0.01}",0.0678192628894
308,"{'num_leaves': 127, 'colsample_bytree': 0.7, 'learning_rate': 0.01, 'lambda_l2': 2, 'subsample': 0.8, 'min_data_in_leaf': 20, 'max_bin': 255, 'objective': 'regression_l1', 'min_sum_hessian_in_leaf': 0.001}",0.0678194432106
49,"{'num_leaves': 127, 'colsample_bytree': 0.5, 'learning_rate': 0.01, 'lambda_l2': 2, 'subsample': 0.5, 'min_data_in_leaf': 30, 'max_bin': 127, 'objective': 'regression_l1', 'min_sum_hessian_in_leaf': 0.1}",0.0678206726658
25,"{'num_leaves': 255, 'colsample_bytree': 0.7, 'learning_rate': 0.01, 'lambda_l2': 1, 'subsample': 0.8, 'min_data_in_leaf': 20, 'max_bin': 127, 'objective': 'regression_l1', 'min_sum_hessian_in_leaf': 0.01}",0.0678212019836
379,"{'num_leaves': 255, 'colsample_bytree': 0.7, 'learning_rate': 0.01, 'lambda_l2': 1, 'subsample': 0.5, 'min_data_in_leaf': 30, 'max_bin': 255, 'objective': 'regression_l1', 'min_sum_hessian_in_leaf': 0.01}",0.0678214750441
383,"{'num_leaves': 255, 'colsample_bytree': 0.5, 'learning_rate': 0.01, 'lambda_l2': 0, 'subsample': 0.8, 'min_data_in_leaf': 20, 'max_bin': 127, 'objective': 'regression_l1', 'min_sum_hessian_in_leaf': 0.1}",0.0678217511384
263,"{'num_leaves': 255, 'colsample_bytree': 0.5, 'learning_rate': 0.01, 'lambda_l2': 2, 'subsample': 0.5, 'min_data_in_leaf': 20, 'max_bin': 255, 'objective': 'regression_l1', 'min_sum_hessian_in_leaf': 0.01}",0.0678218605307
118,"{'num_leaves': 127, 'colsample_bytree': 0.5, 'learning_rate': 0.01, 'lambda_l2': 1, 'subsample': 0.8, 'min_data_in_leaf': 20, 'max_bin': 127, 'objective': 'regression_l1', 'min_sum_hessian_in_leaf': 0.01}",0.067822090736
389,"{'num_leaves': 255, 'colsample_bytree': 0.5, 'learning_rate': 0.01, 'lambda_l2': 2, 'subsample': 0.5, 'min_data_in_leaf': 20, 'max_bin': 127, 'objective': 'regression_l1', 'min_sum_hessian_in_leaf': 0.001}",0.0678226282756
286,"{'num_leaves': 127, 'colsample_bytree': 0.5, 'learning_rate': 0.01, 'lambda_l2': 0, 'subsample': 0.5, 'min_data_in_leaf': 30, 'max_bin': 127, 'objective': 'regression_l1', 'min_sum_hessian_in_leaf': 0.01}",0.0678226582421
7,"{'num_leaves': 127, 'colsample_bytree': 0.5, 'learning_rate': 0.01, 'lambda_l2': 0, 'subsample': 0.5, 'min_data_in_leaf': 30, 'max_bin': 255, 'objective': 'regression_l1', 'min_sum_hessian_in_leaf': 0.001}",0.0678226992362
150,"{'num_leaves': 127, 'colsample_bytree': 0.5, 'learning_rate': 0.01, 'lambda_l2': 2, 'subsample': 0.8, 'min_data_in_leaf': 20, 'max_bin': 255, 'objective': 'regression_l1', 'min_sum_hessian_in_leaf': 0.1}",0.0678227068504
394,"{'num_leaves': 127, 'colsample_bytree': 0.5, 'learning_rate': 0.01, 'lambda_l2': 0, 'subsample': 0.8, 'min_data_in_leaf': 20, 'max_bin': 255, 'objective': 'regression_l1', 'min_sum_hessian_in_leaf': 0.1}",0.0678227660509
339,"{'num_leaves': 255, 'colsample_bytree': 0.7, 'learning_rate': 0.01, 'lambda_l2': 0, 'subsample': 0.8, 'min_data_in_leaf': 20, 'max_bin': 127, 'objective': 'regression_l1', 'min_sum_hessian_in_leaf': 0.001}",0.0678236237156
79,"{'num_leaves': 127, 'colsample_bytree': 0.7, 'learning_rate': 0.01, 'lambda_l2': 0, 'subsample': 0.8, 'min_data_in_leaf': 20, 'max_bin': 255, 'objective': 'regression_l1', 'min_sum_hessian_in_leaf': 0.1}",0.0678238047637
213,"{'num_leaves': 127, 'colsample_bytree': 0.7, 'learning_rate': 0.01, 'lambda_l2': 0, 'subsample': 0.5, 'min_data_in_leaf': 30, 'max_bin': 127, 'objective': 'regression_l1', 'min_sum_hessian_in_leaf': 0.001}",0.0678239937667
34,"{'num_leaves': 255, 'colsample_bytree': 0.5, 'learning_rate': 0.01, 'lambda_l2': 0, 'subsample': 0.5, 'min_data_in_leaf': 20, 'max_bin': 255, 'objective': 'regression_l1', 'min_sum_hessian_in_leaf': 0.001}",0.0678241192876
410,"{'num_leaves': 127, 'colsample_bytree': 0.7, 'learning_rate': 0.01, 'lambda_l2': 0, 'subsample': 0.5, 'min_data_in_leaf': 30, 'max_bin': 127, 'objective': 'regression_l1', 'min_sum_hessian_in_leaf': 0.1}",0.0678241507688
417,"{'num_leaves': 127, 'colsample_bytree': 0.7, 'learning_rate': 0.01, 'lambda_l2': 2, 'subsample': 0.8, 'min_data_in_leaf': 30, 'max_bin': 255, 'objective': 'regression_l1', 'min_sum_hessian_in_leaf': 0.1}",0.0678243088386
291,"{'num_leaves': 255, 'colsample_bytree': 0.5, 'learning_rate': 0.01, 'lambda_l2': 0, 'subsample': 0.5, 'min_data_in_leaf': 20, 'max_bin': 255, 'objective': 'regression_l1', 'min_sum_hessian_in_leaf': 0.01}",0.0678244531233
67,"{'num_leaves': 255, 'colsample_bytree': 0.7, 'learning_rate': 0.01, 'lambda_l2': 0, 'subsample': 0.5, 'min_data_in_leaf': 30, 'max_bin': 255, 'objective': 'regression_l1', 'min_sum_hessian_in_leaf': 0.001}",0.067824501088
252,"{'num_leaves': 255, 'colsample_bytree': 0.7, 'learning_rate': 0.01, 'lambda_l2': 0, 'subsample': 0.5, 'min_data_in_leaf': 20, 'max_bin': 127, 'objective': 'regression_l1', 'min_sum_hessian_in_leaf': 0.01}",0.0678248013857
360,"{'num_leaves': 255, 'colsample_bytree': 0.5, 'learning_rate': 0.01, 'lambda_l2': 1, 'subsample': 0.5, 'min_data_in_leaf': 20, 'max_bin': 127, 'objective': 'regression_l1', 'min_sum_hessian_in_leaf': 0.001}",0.0678248182828
212,"{'num_leaves': 127, 'colsample_bytree': 0.5, 'learning_rate': 0.01, 'lambda_l2': 0, 'subsample': 0.8, 'min_data_in_leaf': 20, 'max_bin': 127, 'objective': 'regression_l1', 'min_sum_hessian_in_leaf': 0.01}",0.0678250778324
138,"{'num_leaves': 255, 'colsample_bytree': 0.5, 'learning_rate': 0.01, 'lambda_l2': 1, 'subsample': 0.5, 'min_data_in_leaf': 20, 'max_bin': 255, 'objective': 'regression_l1', 'min_sum_hessian_in_leaf': 0.1}",0.0678256263288
359,"{'num_leaves': 127, 'colsample_bytree': 0.5, 'learning_rate': 0.01, 'lambda_l2': 2, 'subsample': 0.8, 'min_data_in_leaf': 20, 'max_bin': 255, 'objective': 'regression_l1', 'min_sum_hessian_in_leaf': 0.01}",0.0678264802049
89,"{'num_leaves': 255, 'colsample_bytree': 0.5, 'learning_rate': 0.01, 'lambda_l2': 0, 'subsample': 0.5, 'min_data_in_leaf': 20, 'max_bin': 255, 'objective': 'regression_l1', 'min_sum_hessian_in_leaf': 0.1}",0.0678266328874
344,"{'num_leaves': 255, 'colsample_bytree': 0.5, 'learning_rate': 0.01, 'lambda_l2': 2, 'subsample': 0.5, 'min_data_in_leaf': 20, 'max_bin': 255, 'objective': 'regression_l1', 'min_sum_hessian_in_leaf': 0.001}",0.0678270635133
256,"{'num_leaves': 255, 'colsample_bytree': 0.7, 'learning_rate': 0.01, 'lambda_l2': 1, 'subsample': 0.5, 'min_data_in_leaf': 20, 'max_bin': 255, 'objective': 'regression_l1', 'min_sum_hessian_in_leaf': 0.01}",0.0678270766929
107,"{'num_leaves': 127, 'colsample_bytree': 0.5, 'learning_rate': 0.01, 'lambda_l2': 1, 'subsample': 0.5, 'min_data_in_leaf': 30, 'max_bin': 255, 'objective': 'regression_l1', 'min_sum_hessian_in_leaf': 0.001}",0.0678271119354
74,"{'num_leaves': 127, 'colsample_bytree': 0.5, 'learning_rate': 0.01, 'lambda_l2': 0, 'subsample': 0.8, 'min_data_in_leaf': 20, 'max_bin': 127, 'objective': 'regression_l1', 'min_sum_hessian_in_leaf': 0.1}",0.0678272228708
306,"{'num_leaves': 127, 'colsample_bytree': 0.7, 'learning_rate': 0.01, 'lambda_l2': 2, 'subsample': 0.5, 'min_data_in_leaf': 30, 'max_bin': 255, 'objective': 'regression_l1', 'min_sum_hessian_in_leaf': 0.1}",0.0678273032253
412,"{'num_leaves': 255, 'colsample_bytree': 0.5, 'learning_rate': 0.01, 'lambda_l2': 0, 'subsample': 0.5, 'min_data_in_leaf': 20, 'max_bin': 127, 'objective': 'regression_l1', 'min_sum_hessian_in_leaf': 0.01}",0.0678273034492
157,"{'num_leaves': 127, 'colsample_bytree': 0.7, 'learning_rate': 0.01, 'lambda_l2': 2, 'subsample': 0.8, 'min_data_in_leaf': 20, 'max_bin': 127, 'objective': 'regression_l1', 'min_sum_hessian_in_leaf': 0.01}",0.0678275748505
247,"{'num_leaves': 255, 'colsample_bytree': 0.7, 'learning_rate': 0.01, 'lambda_l2': 1, 'subsample': 0.8, 'min_data_in_leaf': 20, 'max_bin': 255, 'objective': 'regression_l1', 'min_sum_hessian_in_leaf': 0.001}",0.067827682979
195,"{'num_leaves': 255, 'colsample_bytree': 0.7, 'learning_rate': 0.01, 'lambda_l2': 2, 'subsample': 0.5, 'min_data_in_leaf': 20, 'max_bin': 255, 'objective': 'regression_l1', 'min_sum_hessian_in_leaf': 0.001}",0.0678280273384
161,"{'num_leaves': 255, 'colsample_bytree': 0.5, 'learning_rate': 0.01, 'lambda_l2': 1, 'subsample': 0.8, 'min_data_in_leaf': 20, 'max_bin': 127, 'objective': 'regression_l1', 'min_sum_hessian_in_leaf': 0.001}",0.0678283168995
26,"{'num_leaves': 255, 'colsample_bytree': 0.5, 'learning_rate': 0.01, 'lambda_l2': 1, 'subsample': 0.5, 'min_data_in_leaf': 20, 'max_bin': 127, 'objective': 'regression_l1', 'min_sum_hessian_in_leaf': 0.1}",0.0678283552764
54,"{'num_leaves': 127, 'colsample_bytree': 0.7, 'learning_rate': 0.01, 'lambda_l2': 0, 'subsample': 0.8, 'min_data_in_leaf': 20, 'max_bin': 255, 'objective': 'regression_l1', 'min_sum_hessian_in_leaf': 0.01}",0.0678283753816
73,"{'num_leaves': 255, 'colsample_bytree': 0.7, 'learning_rate': 0.01, 'lambda_l2': 0, 'subsample': 0.5, 'min_data_in_leaf': 20, 'max_bin': 255, 'objective': 'regression_l1', 'min_sum_hessian_in_leaf': 0.1}",0.067828664159
287,"{'num_leaves': 127, 'colsample_bytree': 0.7, 'learning_rate': 0.01, 'lambda_l2': 1, 'subsample': 0.5, 'min_data_in_leaf': 30, 'max_bin': 255, 'objective': 'regression_l1', 'min_sum_hessian_in_leaf': 0.001}",0.0678289073127
390,"{'num_leaves': 255, 'colsample_bytree': 0.7, 'learning_rate': 0.01, 'lambda_l2': 2, 'subsample': 0.5, 'min_data_in_leaf': 20, 'max_bin': 255, 'objective': 'regression_l1', 'min_sum_hessian_in_leaf': 0.01}",0.0678303053263
36,"{'num_leaves': 127, 'colsample_bytree': 0.7, 'learning_rate': 0.01, 'lambda_l2': 0, 'subsample': 0.8, 'min_data_in_leaf': 20, 'max_bin': 127, 'objective': 'regression_l1', 'min_sum_hessian_in_leaf': 0.1}",0.0678305647225
341,"{'num_leaves': 127, 'colsample_bytree': 0.5, 'learning_rate': 0.01, 'lambda_l2': 2, 'subsample': 0.5, 'min_data_in_leaf': 20, 'max_bin': 255, 'objective': 'regression_l1', 'min_sum_hessian_in_leaf': 0.1}",0.0678307062768
193,"{'num_leaves': 127, 'colsample_bytree': 0.5, 'learning_rate': 0.01, 'lambda_l2': 1, 'subsample': 0.8, 'min_data_in_leaf': 20, 'max_bin': 255, 'objective': 'regression_l1', 'min_sum_hessian_in_leaf': 0.001}",0.0678307972606
253,"{'num_leaves': 255, 'colsample_bytree': 0.5, 'learning_rate': 0.01, 'lambda_l2': 0, 'subsample': 0.5, 'min_data_in_leaf': 20, 'max_bin': 127, 'objective': 'regression_l1', 'min_sum_hessian_in_leaf': 0.001}",0.0678310169651
328,"{'num_leaves': 127, 'colsample_bytree': 0.5, 'learning_rate': 0.01, 'lambda_l2': 1, 'subsample': 0.8, 'min_data_in_leaf': 20, 'max_bin': 255, 'objective': 'regression_l1', 'min_sum_hessian_in_leaf': 0.1}",0.0678312327345
313,"{'num_leaves': 127, 'colsample_bytree': 0.5, 'learning_rate': 0.01, 'lambda_l2': 0, 'subsample': 0.8, 'min_data_in_leaf': 20, 'max_bin': 127, 'objective': 'regression_l1', 'min_sum_hessian_in_leaf': 0.001}",0.0678312939629
22,"{'num_leaves': 127, 'colsample_bytree': 0.7, 'learning_rate': 0.01, 'lambda_l2': 2, 'subsample': 0.8, 'min_data_in_leaf': 20, 'max_bin': 255, 'objective': 'regression_l1', 'min_sum_hessian_in_leaf': 0.01}",0.0678313342829
114,"{'num_leaves': 255, 'colsample_bytree': 0.7, 'learning_rate': 0.01, 'lambda_l2': 0, 'subsample': 0.5, 'min_data_in_leaf': 20, 'max_bin': 127, 'objective': 'regression_l1', 'min_sum_hessian_in_leaf': 0.001}",0.0678314087141
101,"{'num_leaves': 127, 'colsample_bytree': 0.7, 'learning_rate': 0.01, 'lambda_l2': 1, 'subsample': 0.5, 'min_data_in_leaf': 30, 'max_bin': 127, 'objective': 'regression_l1', 'min_sum_hessian_in_leaf': 0.01}",0.0678319590302
72,"{'num_leaves': 127, 'colsample_bytree': 0.7, 'learning_rate': 0.01, 'lambda_l2': 1, 'subsample': 0.5, 'min_data_in_leaf': 30, 'max_bin': 255, 'objective': 'regression_l1', 'min_sum_hessian_in_leaf': 0.01}",0.0678319650419
204,"{'num_leaves': 127, 'colsample_bytree': 0.7, 'learning_rate': 0.01, 'lambda_l2': 0, 'subsample': 0.5, 'min_data_in_leaf': 30, 'max_bin': 255, 'objective': 'regression_l1', 'min_sum_hessian_in_leaf': 0.01}",0.0678322125246
382,"{'num_leaves': 127, 'colsample_bytree': 0.7, 'learning_rate': 0.01, 'lambda_l2': 2, 'subsample': 0.8, 'min_data_in_leaf': 20, 'max_bin': 127, 'objective': 'regression_l1', 'min_sum_hessian_in_leaf': 0.001}",0.0678324416852
342,"{'num_leaves': 127, 'colsample_bytree': 0.7, 'learning_rate': 0.01, 'lambda_l2': 1, 'subsample': 0.8, 'min_data_in_leaf': 20, 'max_bin': 255, 'objective': 'regression_l1', 'min_sum_hessian_in_leaf': 0.1}",0.0678326167118
128,"{'num_leaves': 127, 'colsample_bytree': 0.5, 'learning_rate': 0.01, 'lambda_l2': 1, 'subsample': 0.5, 'min_data_in_leaf': 20, 'max_bin': 255, 'objective': 'regression_l1', 'min_sum_hessian_in_leaf': 0.001}",0.0678327272472
289,"{'num_leaves': 127, 'colsample_bytree': 0.5, 'learning_rate': 0.01, 'lambda_l2': 1, 'subsample': 0.5, 'min_data_in_leaf': 30, 'max_bin': 127, 'objective': 'regression_l1', 'min_sum_hessian_in_leaf': 0.01}",0.0678328539475
196,"{'num_leaves': 127, 'colsample_bytree': 0.7, 'learning_rate': 0.01, 'lambda_l2': 0, 'subsample': 0.5, 'min_data_in_leaf': 30, 'max_bin': 255, 'objective': 'regression_l1', 'min_sum_hessian_in_leaf': 0.1}",0.0678332134432
267,"{'num_leaves': 127, 'colsample_bytree': 0.5, 'learning_rate': 0.01, 'lambda_l2': 1, 'subsample': 0.8, 'min_data_in_leaf': 20, 'max_bin': 255, 'objective': 'regression_l1', 'min_sum_hessian_in_leaf': 0.01}",0.0678332763576
133,"{'num_leaves': 127, 'colsample_bytree': 0.7, 'learning_rate': 0.01, 'lambda_l2': 2, 'subsample': 0.5, 'min_data_in_leaf': 30, 'max_bin': 255, 'objective': 'regression_l1', 'min_sum_hessian_in_leaf': 0.01}",0.0678333314227
271,"{'num_leaves': 255, 'colsample_bytree': 0.5, 'learning_rate': 0.01, 'lambda_l2': 0, 'subsample': 0.8, 'min_data_in_leaf': 10, 'max_bin': 255, 'objective': 'regression_l1', 'min_sum_hessian_in_leaf': 0.001}",0.0678333352431
61,"{'num_leaves': 255, 'colsample_bytree': 0.7, 'learning_rate': 0.01, 'lambda_l2': 1, 'subsample': 0.5, 'min_data_in_leaf': 20, 'max_bin': 255, 'objective': 'regression_l1', 'min_sum_hessian_in_leaf': 0.1}",0.0678334900995
236,"{'num_leaves': 127, 'colsample_bytree': 0.7, 'learning_rate': 0.01, 'lambda_l2': 2, 'subsample': 0.8, 'min_data_in_leaf': 20, 'max_bin': 127, 'objective': 'regression_l1', 'min_sum_hessian_in_leaf': 0.1}",0.0678338253144
368,"{'num_leaves': 127, 'colsample_bytree': 0.5, 'learning_rate': 0.01, 'lambda_l2': 2, 'subsample': 0.5, 'min_data_in_leaf': 30, 'max_bin': 255, 'objective': 'regression_l1', 'min_sum_hessian_in_leaf': 0.1}",0.0678338621765
281,"{'num_leaves': 127, 'colsample_bytree': 0.5, 'learning_rate': 0.01, 'lambda_l2': 2, 'subsample': 0.8, 'min_data_in_leaf': 20, 'max_bin': 255, 'objective': 'regression_l1', 'min_sum_hessian_in_leaf': 0.001}",0.0678339171994
76,"{'num_leaves': 127, 'colsample_bytree': 0.7, 'learning_rate': 0.01, 'lambda_l2': 0, 'subsample': 0.8, 'min_data_in_leaf': 20, 'max_bin': 255, 'objective': 'regression_l1', 'min_sum_hessian_in_leaf': 0.001}",0.0678341167367
122,"{'num_leaves': 255, 'colsample_bytree': 0.7, 'learning_rate': 0.01, 'lambda_l2': 0, 'subsample': 0.5, 'min_data_in_leaf': 30, 'max_bin': 255, 'objective': 'regression_l1', 'min_sum_hessian_in_leaf': 0.01}",0.0678344468837
12,"{'num_leaves': 255, 'colsample_bytree': 0.7, 'learning_rate': 0.01, 'lambda_l2': 0, 'subsample': 0.5, 'min_data_in_leaf': 20, 'max_bin': 255, 'objective': 'regression_l1', 'min_sum_hessian_in_leaf': 0.001}",0.0678347463862
221,"{'num_leaves': 127, 'colsample_bytree': 0.7, 'learning_rate': 0.01, 'lambda_l2': 1, 'subsample': 0.8, 'min_data_in_leaf': 20, 'max_bin': 255, 'objective': 'regression_l1', 'min_sum_hessian_in_leaf': 0.001}",0.0678348226245
154,"{'num_leaves': 255, 'colsample_bytree': 0.7, 'learning_rate': 0.01, 'lambda_l2': 2, 'subsample': 0.5, 'min_data_in_leaf': 20, 'max_bin': 127, 'objective': 'regression_l1', 'min_sum_hessian_in_leaf': 0.001}",0.067835677061
140,"{'num_leaves': 127, 'colsample_bytree': 0.7, 'learning_rate': 0.01, 'lambda_l2': 2, 'subsample': 0.5, 'min_data_in_leaf': 20, 'max_bin': 127, 'objective': 'regression_l1', 'min_sum_hessian_in_leaf': 0.001}",0.0678360786347
202,"{'num_leaves': 255, 'colsample_bytree': 0.5, 'learning_rate': 0.01, 'lambda_l2': 2, 'subsample': 0.8, 'min_data_in_leaf': 10, 'max_bin': 255, 'objective': 'regression_l1', 'min_sum_hessian_in_leaf': 0.001}",0.067836161096
208,"{'num_leaves': 255, 'colsample_bytree': 0.7, 'learning_rate': 0.01, 'lambda_l2': 1, 'subsample': 0.5, 'min_data_in_leaf': 20, 'max_bin': 255, 'objective': 'regression_l1', 'min_sum_hessian_in_leaf': 0.001}",0.0678361727213
384,"{'num_leaves': 127, 'colsample_bytree': 0.7, 'learning_rate': 0.01, 'lambda_l2': 1, 'subsample': 0.8, 'min_data_in_leaf': 20, 'max_bin': 127, 'objective': 'regression_l1', 'min_sum_hessian_in_leaf': 0.001}",0.0678364505448
294,"{'num_leaves': 127, 'colsample_bytree': 0.7, 'learning_rate': 0.01, 'lambda_l2': 1, 'subsample': 0.8, 'min_data_in_leaf': 20, 'max_bin': 127, 'objective': 'regression_l1', 'min_sum_hessian_in_leaf': 0.01}",0.0678365476031
130,"{'num_leaves': 127, 'colsample_bytree': 0.5, 'learning_rate': 0.01, 'lambda_l2': 2, 'subsample': 0.5, 'min_data_in_leaf': 20, 'max_bin': 127, 'objective': 'regression_l1', 'min_sum_hessian_in_leaf': 0.001}",0.0678367429318
48,"{'num_leaves': 127, 'colsample_bytree': 0.7, 'learning_rate': 0.01, 'lambda_l2': 2, 'subsample': 0.5, 'min_data_in_leaf': 30, 'max_bin': 127, 'objective': 'regression_l1', 'min_sum_hessian_in_leaf': 0.001}",0.0678368144885
363,"{'num_leaves': 127, 'colsample_bytree': 0.7, 'learning_rate': 0.01, 'lambda_l2': 0, 'subsample': 0.8, 'min_data_in_leaf': 20, 'max_bin': 127, 'objective': 'regression_l1', 'min_sum_hessian_in_leaf': 0.001}",0.0678370430124
364,"{'num_leaves': 127, 'colsample_bytree': 0.5, 'learning_rate': 0.01, 'lambda_l2': 1, 'subsample': 0.5, 'min_data_in_leaf': 20, 'max_bin': 127, 'objective': 'regression_l1', 'min_sum_hessian_in_leaf': 0.001}",0.0678371904658
68,"{'num_leaves': 127, 'colsample_bytree': 0.5, 'learning_rate': 0.01, 'lambda_l2': 1, 'subsample': 0.5, 'min_data_in_leaf': 30, 'max_bin': 255, 'objective': 'regression_l1', 'min_sum_hessian_in_leaf': 0.01}",0.0678372258617
94,"{'num_leaves': 127, 'colsample_bytree': 0.7, 'learning_rate': 0.01, 'lambda_l2': 0, 'subsample': 0.8, 'min_data_in_leaf': 20, 'max_bin': 127, 'objective': 'regression_l1', 'min_sum_hessian_in_leaf': 0.01}",0.0678372331803
333,"{'num_leaves': 127, 'colsample_bytree': 0.7, 'learning_rate': 0.01, 'lambda_l2': 1, 'subsample': 0.5, 'min_data_in_leaf': 30, 'max_bin': 255, 'objective': 'regression_l1', 'min_sum_hessian_in_leaf': 0.1}",0.0678372597825
377,"{'num_leaves': 127, 'colsample_bytree': 0.7, 'learning_rate': 0.01, 'lambda_l2': 1, 'subsample': 0.8, 'min_data_in_leaf': 20, 'max_bin': 255, 'objective': 'regression_l1', 'min_sum_hessian_in_leaf': 0.01}",0.0678374606518
35,"{'num_leaves': 255, 'colsample_bytree': 0.7, 'learning_rate': 0.01, 'lambda_l2': 0, 'subsample': 0.5, 'min_data_in_leaf': 20, 'max_bin': 255, 'objective': 'regression_l1', 'min_sum_hessian_in_leaf': 0.01}",0.067837993918
274,"{'num_leaves': 127, 'colsample_bytree': 0.7, 'learning_rate': 0.01, 'lambda_l2': 0, 'subsample': 0.5, 'min_data_in_leaf': 30, 'max_bin': 127, 'objective': 'regression_l1', 'min_sum_hessian_in_leaf': 0.01}",0.0678385989413
305,"{'num_leaves': 255, 'colsample_bytree': 0.7, 'learning_rate': 0.01, 'lambda_l2': 2, 'subsample': 0.5, 'min_data_in_leaf': 20, 'max_bin': 127, 'objective': 'regression_l1', 'min_sum_hessian_in_leaf': 0.1}",0.067838866038
24,"{'num_leaves': 127, 'colsample_bytree': 0.5, 'learning_rate': 0.01, 'lambda_l2': 0, 'subsample': 0.5, 'min_data_in_leaf': 20, 'max_bin': 127, 'objective': 'regression_l1', 'min_sum_hessian_in_leaf': 0.1}",0.0678389188762
224,"{'num_leaves': 127, 'colsample_bytree': 0.7, 'learning_rate': 0.01, 'lambda_l2': 1, 'subsample': 0.5, 'min_data_in_leaf': 30, 'max_bin': 127, 'objective': 'regression_l1', 'min_sum_hessian_in_leaf': 0.1}",0.067839295522
269,"{'num_leaves': 127, 'colsample_bytree': 0.7, 'learning_rate': 0.01, 'lambda_l2': 0, 'subsample': 0.5, 'min_data_in_leaf': 30, 'max_bin': 255, 'objective': 'regression_l1', 'min_sum_hessian_in_leaf': 0.001}",0.0678394321657
261,"{'num_leaves': 255, 'colsample_bytree': 0.7, 'learning_rate': 0.01, 'lambda_l2': 1, 'subsample': 0.5, 'min_data_in_leaf': 20, 'max_bin': 127, 'objective': 'regression_l1', 'min_sum_hessian_in_leaf': 0.001}",0.0678397329935
239,"{'num_leaves': 127, 'colsample_bytree': 0.5, 'learning_rate': 0.01, 'lambda_l2': 0, 'subsample': 0.5, 'min_data_in_leaf': 30, 'max_bin': 255, 'objective': 'regression_l1', 'min_sum_hessian_in_leaf': 0.1}",0.0678398499115
166,"{'num_leaves': 255, 'colsample_bytree': 0.5, 'learning_rate': 0.01, 'lambda_l2': 0, 'subsample': 0.8, 'min_data_in_leaf': 10, 'max_bin': 127, 'objective': 'regression_l1', 'min_sum_hessian_in_leaf': 0.1}",0.0678400810888
148,"{'num_leaves': 127, 'colsample_bytree': 0.7, 'learning_rate': 0.01, 'lambda_l2': 2, 'subsample': 0.5, 'min_data_in_leaf': 30, 'max_bin': 255, 'objective': 'regression_l1', 'min_sum_hessian_in_leaf': 0.001}",0.0678406500688
371,"{'num_leaves': 255, 'colsample_bytree': 0.7, 'learning_rate': 0.01, 'lambda_l2': 2, 'subsample': 0.5, 'min_data_in_leaf': 20, 'max_bin': 255, 'objective': 'regression_l1', 'min_sum_hessian_in_leaf': 0.1}",0.0678409727101
15,"{'num_leaves': 255, 'colsample_bytree': 0.5, 'learning_rate': 0.01, 'lambda_l2': 2, 'subsample': 0.8, 'min_data_in_leaf': 20, 'max_bin': 127, 'objective': 'regression_l1', 'min_sum_hessian_in_leaf': 0.01}",0.0678413222463
254,"{'num_leaves': 127, 'colsample_bytree': 0.5, 'learning_rate': 0.01, 'lambda_l2': 1, 'subsample': 0.5, 'min_data_in_leaf': 20, 'max_bin': 255, 'objective': 'regression_l1', 'min_sum_hessian_in_leaf': 0.01}",0.0678414132482
75,"{'num_leaves': 127, 'colsample_bytree': 0.5, 'learning_rate': 0.01, 'lambda_l2': 0, 'subsample': 0.8, 'min_data_in_leaf': 20, 'max_bin': 255, 'objective': 'regression_l1', 'min_sum_hessian_in_leaf': 0.001}",0.067841957127
93,"{'num_leaves': 127, 'colsample_bytree': 0.7, 'learning_rate': 0.01, 'lambda_l2': 1, 'subsample': 0.5, 'min_data_in_leaf': 20, 'max_bin': 255, 'objective': 'regression_l1', 'min_sum_hessian_in_leaf': 0.1}",0.0678422748997
347,"{'num_leaves': 255, 'colsample_bytree': 0.7, 'learning_rate': 0.01, 'lambda_l2': 1, 'subsample': 0.5, 'min_data_in_leaf': 20, 'max_bin': 127, 'objective': 'regression_l1', 'min_sum_hessian_in_leaf': 0.1}",0.0678429881795
411,"{'num_leaves': 255, 'colsample_bytree': 0.5, 'learning_rate': 0.01, 'lambda_l2': 1, 'subsample': 0.5, 'min_data_in_leaf': 20, 'max_bin': 255, 'objective': 'regression_l1', 'min_sum_hessian_in_leaf': 0.01}",0.0678433420887
380,"{'num_leaves': 127, 'colsample_bytree': 0.7, 'learning_rate': 0.01, 'lambda_l2': 2, 'subsample': 0.5, 'min_data_in_leaf': 30, 'max_bin': 127, 'objective': 'regression_l1', 'min_sum_hessian_in_leaf': 0.1}",0.0678436140273
312,"{'num_leaves': 127, 'colsample_bytree': 0.5, 'learning_rate': 0.01, 'lambda_l2': 2, 'subsample': 0.8, 'min_data_in_leaf': 20, 'max_bin': 127, 'objective': 'regression_l1', 'min_sum_hessian_in_leaf': 0.01}",0.0678439832432
86,"{'num_leaves': 127, 'colsample_bytree': 0.7, 'learning_rate': 0.01, 'lambda_l2': 2, 'subsample': 0.5, 'min_data_in_leaf': 20, 'max_bin': 127, 'objective': 'regression_l1', 'min_sum_hessian_in_leaf': 0.1}",0.0678441874665
52,"{'num_leaves': 255, 'colsample_bytree': 0.5, 'learning_rate': 0.01, 'lambda_l2': 2, 'subsample': 0.5, 'min_data_in_leaf': 20, 'max_bin': 255, 'objective': 'regression_l1', 'min_sum_hessian_in_leaf': 0.1}",0.0678444415023
343,"{'num_leaves': 127, 'colsample_bytree': 0.5, 'learning_rate': 0.01, 'lambda_l2': 2, 'subsample': 0.5, 'min_data_in_leaf': 20, 'max_bin': 255, 'objective': 'regression_l1', 'min_sum_hessian_in_leaf': 0.01}",0.0678449234284
356,"{'num_leaves': 127, 'colsample_bytree': 0.5, 'learning_rate': 0.01, 'lambda_l2': 2, 'subsample': 0.8, 'min_data_in_leaf': 10, 'max_bin': 127, 'objective': 'regression_l1', 'min_sum_hessian_in_leaf': 0.1}",0.0678474303773
303,"{'num_leaves': 255, 'colsample_bytree': 0.7, 'learning_rate': 0.01, 'lambda_l2': 0, 'subsample': 0.5, 'min_data_in_leaf': 20, 'max_bin': 127, 'objective': 'regression_l1', 'min_sum_hessian_in_leaf': 0.1}",0.0678476855332
378,"{'num_leaves': 255, 'colsample_bytree': 0.7, 'learning_rate': 0.01, 'lambda_l2': 1, 'subsample': 0.5, 'min_data_in_leaf': 20, 'max_bin': 127, 'objective': 'regression_l1', 'min_sum_hessian_in_leaf': 0.01}",0.0678479641716
238,"{'num_leaves': 127, 'colsample_bytree': 0.7, 'learning_rate': 0.01, 'lambda_l2': 0, 'subsample': 0.5, 'min_data_in_leaf': 20, 'max_bin': 127, 'objective': 'regression_l1', 'min_sum_hessian_in_leaf': 0.01}",0.0678486390415
38,"{'num_leaves': 127, 'colsample_bytree': 0.7, 'learning_rate': 0.01, 'lambda_l2': 2, 'subsample': 0.8, 'min_data_in_leaf': 20, 'max_bin': 255, 'objective': 'regression_l1', 'min_sum_hessian_in_leaf': 0.1}",0.0678487077469
46,"{'num_leaves': 255, 'colsample_bytree': 0.5, 'learning_rate': 0.01, 'lambda_l2': 1, 'subsample': 0.8, 'min_data_in_leaf': 10, 'max_bin': 127, 'objective': 'regression_l1', 'min_sum_hessian_in_leaf': 0.01}",0.0678487396229
56,"{'num_leaves': 127, 'colsample_bytree': 0.5, 'learning_rate': 0.01, 'lambda_l2': 1, 'subsample': 0.5, 'min_data_in_leaf': 30, 'max_bin': 255, 'objective': 'regression_l1', 'min_sum_hessian_in_leaf': 0.1}",0.0678492934289
217,"{'num_leaves': 127, 'colsample_bytree': 0.7, 'learning_rate': 0.01, 'lambda_l2': 2, 'subsample': 0.5, 'min_data_in_leaf': 20, 'max_bin': 255, 'objective': 'regression_l1', 'min_sum_hessian_in_leaf': 0.01}",0.0678497396248
404,"{'num_leaves': 127, 'colsample_bytree': 0.5, 'learning_rate': 0.01, 'lambda_l2': 1, 'subsample': 0.5, 'min_data_in_leaf': 20, 'max_bin': 255, 'objective': 'regression_l1', 'min_sum_hessian_in_leaf': 0.1}",0.0678510086557
165,"{'num_leaves': 127, 'colsample_bytree': 0.5, 'learning_rate': 0.01, 'lambda_l2': 2, 'subsample': 0.5, 'min_data_in_leaf': 20, 'max_bin': 255, 'objective': 'regression_l1', 'min_sum_hessian_in_leaf': 0.001}",0.0678511718362
215,"{'num_leaves': 255, 'colsample_bytree': 0.5, 'learning_rate': 0.01, 'lambda_l2': 1, 'subsample': 0.8, 'min_data_in_leaf': 10, 'max_bin': 255, 'objective': 'regression_l1', 'min_sum_hessian_in_leaf': 0.001}",0.0678515368167
149,"{'num_leaves': 127, 'colsample_bytree': 0.7, 'learning_rate': 0.01, 'lambda_l2': 0, 'subsample': 0.5, 'min_data_in_leaf': 20, 'max_bin': 255, 'objective': 'regression_l1', 'min_sum_hessian_in_leaf': 0.1}",0.067851775704
284,"{'num_leaves': 255, 'colsample_bytree': 0.5, 'learning_rate': 0.01, 'lambda_l2': 1, 'subsample': 0.8, 'min_data_in_leaf': 10, 'max_bin': 255, 'objective': 'regression_l1', 'min_sum_hessian_in_leaf': 0.01}",0.0678524097856
207,"{'num_leaves': 127, 'colsample_bytree': 0.7, 'learning_rate': 0.01, 'lambda_l2': 1, 'subsample': 0.5, 'min_data_in_leaf': 20, 'max_bin': 127, 'objective': 'regression_l1', 'min_sum_hessian_in_leaf': 0.01}",0.0678524398522
426,"{'num_leaves': 255, 'colsample_bytree': 0.7, 'learning_rate': 0.01, 'lambda_l2': 1, 'subsample': 0.8, 'min_data_in_leaf': 10, 'max_bin': 255, 'objective': 'regression_l1', 'min_sum_hessian_in_leaf': 0.001}",0.067853189603
290,"{'num_leaves': 127, 'colsample_bytree': 0.5, 'learning_rate': 0.01, 'lambda_l2': 2, 'subsample': 0.5, 'min_data_in_leaf': 20, 'max_bin': 127, 'objective': 'regression_l1', 'min_sum_hessian_in_leaf': 0.01}",0.0678537383482
425,"{'num_leaves': 127, 'colsample_bytree': 0.5, 'learning_rate': 0.01, 'lambda_l2': 1, 'subsample': 0.5, 'min_data_in_leaf': 20, 'max_bin': 127, 'objective': 'regression_l1', 'min_sum_hessian_in_leaf': 0.01}",0.0678537968883
222,"{'num_leaves': 255, 'colsample_bytree': 0.5, 'learning_rate': 0.01, 'lambda_l2': 0, 'subsample': 0.5, 'min_data_in_leaf': 20, 'max_bin': 127, 'objective': 'regression_l1', 'min_sum_hessian_in_leaf': 0.1}",0.067854428418
310,"{'num_leaves': 255, 'colsample_bytree': 0.5, 'learning_rate': 0.01, 'lambda_l2': 1, 'subsample': 0.8, 'min_data_in_leaf': 10, 'max_bin': 127, 'objective': 'regression_l1', 'min_sum_hessian_in_leaf': 0.001}",0.0678544576942
362,"{'num_leaves': 127, 'colsample_bytree': 0.5, 'learning_rate': 0.01, 'lambda_l2': 2, 'subsample': 0.5, 'min_data_in_leaf': 20, 'max_bin': 127, 'objective': 'regression_l1', 'min_sum_hessian_in_leaf': 0.1}",0.0678547516391
233,"{'num_leaves': 127, 'colsample_bytree': 0.5, 'learning_rate': 0.01, 'lambda_l2': 1, 'subsample': 0.5, 'min_data_in_leaf': 20, 'max_bin': 127, 'objective': 'regression_l1', 'min_sum_hessian_in_leaf': 0.1}",0.067854982906
62,"{'num_leaves': 127, 'colsample_bytree': 0.5, 'learning_rate': 0.01, 'lambda_l2': 0, 'subsample': 0.5, 'min_data_in_leaf': 20, 'max_bin': 127, 'objective': 'regression_l1', 'min_sum_hessian_in_leaf': 0.001}",0.0678549883959
242,"{'num_leaves': 127, 'colsample_bytree': 0.5, 'learning_rate': 0.01, 'lambda_l2': 0, 'subsample': 0.5, 'min_data_in_leaf': 20, 'max_bin': 255, 'objective': 'regression_l1', 'min_sum_hessian_in_leaf': 0.001}",0.0678553557801
387,"{'num_leaves': 255, 'colsample_bytree': 0.5, 'learning_rate': 0.01, 'lambda_l2': 2, 'subsample': 0.8, 'min_data_in_leaf': 10, 'max_bin': 255, 'objective': 'regression_l1', 'min_sum_hessian_in_leaf': 0.01}",0.0678569440906
27,"{'num_leaves': 255, 'colsample_bytree': 0.7, 'learning_rate': 0.01, 'lambda_l2': 1, 'subsample': 0.8, 'min_data_in_leaf': 10, 'max_bin': 255, 'objective': 'regression_l1', 'min_sum_hessian_in_leaf': 0.1}",0.0678569903339
381,"{'num_leaves': 255, 'colsample_bytree': 0.5, 'learning_rate': 0.01, 'lambda_l2': 0, 'subsample': 0.8, 'min_data_in_leaf': 10, 'max_bin': 255, 'objective': 'regression_l1', 'min_sum_hessian_in_leaf': 0.01}",0.0678572876319
230,"{'num_leaves': 127, 'colsample_bytree': 0.7, 'learning_rate': 0.01, 'lambda_l2': 0, 'subsample': 0.5, 'min_data_in_leaf': 20, 'max_bin': 127, 'objective': 'regression_l1', 'min_sum_hessian_in_leaf': 0.1}",0.0678574813616
304,"{'num_leaves': 127, 'colsample_bytree': 0.7, 'learning_rate': 0.01, 'lambda_l2': 0, 'subsample': 0.5, 'min_data_in_leaf': 20, 'max_bin': 127, 'objective': 'regression_l1', 'min_sum_hessian_in_leaf': 0.001}",0.0678576061607
296,"{'num_leaves': 255, 'colsample_bytree': 0.7, 'learning_rate': 0.01, 'lambda_l2': 1, 'subsample': 0.8, 'min_data_in_leaf': 10, 'max_bin': 127, 'objective': 'regression_l1', 'min_sum_hessian_in_leaf': 0.01}",0.0678577055732
421,"{'num_leaves': 255, 'colsample_bytree': 0.7, 'learning_rate': 0.01, 'lambda_l2': 0, 'subsample': 0.8, 'min_data_in_leaf': 10, 'max_bin': 255, 'objective': 'regression_l1', 'min_sum_hessian_in_leaf': 0.001}",0.0678577707776
156,"{'num_leaves': 127, 'colsample_bytree': 0.7, 'learning_rate': 0.01, 'lambda_l2': 1, 'subsample': 0.5, 'min_data_in_leaf': 20, 'max_bin': 127, 'objective': 'regression_l1', 'min_sum_hessian_in_leaf': 0.001}",0.0678578125628
81,"{'num_leaves': 127, 'colsample_bytree': 0.5, 'learning_rate': 0.01, 'lambda_l2': 0, 'subsample': 0.5, 'min_data_in_leaf': 20, 'max_bin': 127, 'objective': 'regression_l1', 'min_sum_hessian_in_leaf': 0.01}",0.0678596921935
396,"{'num_leaves': 255, 'colsample_bytree': 0.5, 'learning_rate': 0.01, 'lambda_l2': 1, 'subsample': 0.8, 'min_data_in_leaf': 10, 'max_bin': 255, 'objective': 'regression_l1', 'min_sum_hessian_in_leaf': 0.1}",0.0678597000641
295,"{'num_leaves': 255, 'colsample_bytree': 0.5, 'learning_rate': 0.01, 'lambda_l2': 1, 'subsample': 0.8, 'min_data_in_leaf': 10, 'max_bin': 127, 'objective': 'regression_l1', 'min_sum_hessian_in_leaf': 0.1}",0.0678598366246
146,"{'num_leaves': 255, 'colsample_bytree': 0.5, 'learning_rate': 0.01, 'lambda_l2': 2, 'subsample': 0.8, 'min_data_in_leaf': 10, 'max_bin': 255, 'objective': 'regression_l1', 'min_sum_hessian_in_leaf': 0.1}",0.0678628462379
218,"{'num_leaves': 127, 'colsample_bytree': 0.5, 'learning_rate': 0.01, 'lambda_l2': 0, 'subsample': 0.5, 'min_data_in_leaf': 20, 'max_bin': 255, 'objective': 'regression_l1', 'min_sum_hessian_in_leaf': 0.1}",0.0678629343533
77,"{'num_leaves': 127, 'colsample_bytree': 0.7, 'learning_rate': 0.01, 'lambda_l2': 0, 'subsample': 0.5, 'min_data_in_leaf': 20, 'max_bin': 255, 'objective': 'regression_l1', 'min_sum_hessian_in_leaf': 0.001}",0.0678630566438
83,"{'num_leaves': 255, 'colsample_bytree': 0.7, 'learning_rate': 0.01, 'lambda_l2': 0, 'subsample': 0.8, 'min_data_in_leaf': 10, 'max_bin': 255, 'objective': 'regression_l1', 'min_sum_hessian_in_leaf': 0.01}",0.0678631128039
2,"{'num_leaves': 127, 'colsample_bytree': 0.7, 'learning_rate': 0.01, 'lambda_l2': 2, 'subsample': 0.5, 'min_data_in_leaf': 20, 'max_bin': 255, 'objective': 'regression_l1', 'min_sum_hessian_in_leaf': 0.001}",0.06786328374
241,"{'num_leaves': 255, 'colsample_bytree': 0.5, 'learning_rate': 0.01, 'lambda_l2': 0, 'subsample': 0.8, 'min_data_in_leaf': 10, 'max_bin': 127, 'objective': 'regression_l1', 'min_sum_hessian_in_leaf': 0.01}",0.0678636638058
127,"{'num_leaves': 127, 'colsample_bytree': 0.5, 'learning_rate': 0.01, 'lambda_l2': 0, 'subsample': 0.8, 'min_data_in_leaf': 10, 'max_bin': 127, 'objective': 'regression_l1', 'min_sum_hessian_in_leaf': 0.01}",0.0678636721406
104,"{'num_leaves': 127, 'colsample_bytree': 0.7, 'learning_rate': 0.01, 'lambda_l2': 2, 'subsample': 0.5, 'min_data_in_leaf': 20, 'max_bin': 127, 'objective': 'regression_l1', 'min_sum_hessian_in_leaf': 0.01}",0.067864079097
88,"{'num_leaves': 255, 'colsample_bytree': 0.7, 'learning_rate': 0.01, 'lambda_l2': 2, 'subsample': 0.8, 'min_data_in_leaf': 10, 'max_bin': 127, 'objective': 'regression_l1', 'min_sum_hessian_in_leaf': 0.001}",0.0678641458075
99,"{'num_leaves': 255, 'colsample_bytree': 0.7, 'learning_rate': 0.01, 'lambda_l2': 2, 'subsample': 0.8, 'min_data_in_leaf': 10, 'max_bin': 255, 'objective': 'regression_l1', 'min_sum_hessian_in_leaf': 0.1}",0.0678644270152
139,"{'num_leaves': 127, 'colsample_bytree': 0.7, 'learning_rate': 0.01, 'lambda_l2': 2, 'subsample': 0.5, 'min_data_in_leaf': 20, 'max_bin': 255, 'objective': 'regression_l1', 'min_sum_hessian_in_leaf': 0.1}",0.0678648090562
245,"{'num_leaves': 255, 'colsample_bytree': 0.5, 'learning_rate': 0.01, 'lambda_l2': 0, 'subsample': 0.8, 'min_data_in_leaf': 10, 'max_bin': 255, 'objective': 'regression_l1', 'min_sum_hessian_in_leaf': 0.1}",0.067865288598
50,"{'num_leaves': 255, 'colsample_bytree': 0.7, 'learning_rate': 0.01, 'lambda_l2': 2, 'subsample': 0.8, 'min_data_in_leaf': 10, 'max_bin': 255, 'objective': 'regression_l1', 'min_sum_hessian_in_leaf': 0.001}",0.0678658216276
91,"{'num_leaves': 127, 'colsample_bytree': 0.7, 'learning_rate': 0.01, 'lambda_l2': 2, 'subsample': 0.8, 'min_data_in_leaf': 10, 'max_bin': 255, 'objective': 'regression_l1', 'min_sum_hessian_in_leaf': 0.01}",0.0678666404372
258,"{'num_leaves': 127, 'colsample_bytree': 0.7, 'learning_rate': 0.01, 'lambda_l2': 0, 'subsample': 0.5, 'min_data_in_leaf': 20, 'max_bin': 255, 'objective': 'regression_l1', 'min_sum_hessian_in_leaf': 0.01}",0.0678667533707
92,"{'num_leaves': 127, 'colsample_bytree': 0.7, 'learning_rate': 0.01, 'lambda_l2': 1, 'subsample': 0.5, 'min_data_in_leaf': 20, 'max_bin': 127, 'objective': 'regression_l1', 'min_sum_hessian_in_leaf': 0.1}",0.0678673180712
260,"{'num_leaves': 255, 'colsample_bytree': 0.5, 'learning_rate': 0.01, 'lambda_l2': 2, 'subsample': 0.8, 'min_data_in_leaf': 10, 'max_bin': 127, 'objective': 'regression_l1', 'min_sum_hessian_in_leaf': 0.1}",0.0678674316136
273,"{'num_leaves': 255, 'colsample_bytree': 0.7, 'learning_rate': 0.01, 'lambda_l2': 1, 'subsample': 0.8, 'min_data_in_leaf': 10, 'max_bin': 255, 'objective': 'regression_l1', 'min_sum_hessian_in_leaf': 0.01}",0.0678675060516
235,"{'num_leaves': 127, 'colsample_bytree': 0.7, 'learning_rate': 0.01, 'lambda_l2': 1, 'subsample': 0.5, 'min_data_in_leaf': 20, 'max_bin': 255, 'objective': 'regression_l1', 'min_sum_hessian_in_leaf': 0.001}",0.067867698031
227,"{'num_leaves': 255, 'colsample_bytree': 0.5, 'learning_rate': 0.01, 'lambda_l2': 2, 'subsample': 0.8, 'min_data_in_leaf': 10, 'max_bin': 127, 'objective': 'regression_l1', 'min_sum_hessian_in_leaf': 0.001}",0.0678681881389
188,"{'num_leaves': 127, 'colsample_bytree': 0.5, 'learning_rate': 0.01, 'lambda_l2': 0, 'subsample': 0.5, 'min_data_in_leaf': 20, 'max_bin': 255, 'objective': 'regression_l1', 'min_sum_hessian_in_leaf': 0.01}",0.0678684664665
429,"{'num_leaves': 255, 'colsample_bytree': 0.5, 'learning_rate': 0.01, 'lambda_l2': 2, 'subsample': 0.8, 'min_data_in_leaf': 10, 'max_bin': 127, 'objective': 'regression_l1', 'min_sum_hessian_in_leaf': 0.01}",0.0678695903825
60,"{'num_leaves': 127, 'colsample_bytree': 0.5, 'learning_rate': 0.01, 'lambda_l2': 2, 'subsample': 0.8, 'min_data_in_leaf': 10, 'max_bin': 255, 'objective': 'regression_l1', 'min_sum_hessian_in_leaf': 0.1}",0.0678698990412
201,"{'num_leaves': 255, 'colsample_bytree': 0.5, 'learning_rate': 0.01, 'lambda_l2': 1, 'subsample': 0.5, 'min_data_in_leaf': 10, 'max_bin': 255, 'objective': 'regression_l1', 'min_sum_hessian_in_leaf': 0.001}",0.0678706496662
250,"{'num_leaves': 255, 'colsample_bytree': 0.5, 'learning_rate': 0.01, 'lambda_l2': 0, 'subsample': 0.8, 'min_data_in_leaf': 10, 'max_bin': 127, 'objective': 'regression_l1', 'min_sum_hessian_in_leaf': 0.001}",0.0678708393898
158,"{'num_leaves': 255, 'colsample_bytree': 0.5, 'learning_rate': 0.01, 'lambda_l2': 2, 'subsample': 0.5, 'min_data_in_leaf': 10, 'max_bin': 255, 'objective': 'regression_l1', 'min_sum_hessian_in_leaf': 0.01}",0.0678709370655
163,"{'num_leaves': 127, 'colsample_bytree': 0.5, 'learning_rate': 0.01, 'lambda_l2': 2, 'subsample': 0.8, 'min_data_in_leaf': 10, 'max_bin': 127, 'objective': 'regression_l1', 'min_sum_hessian_in_leaf': 0.01}",0.0678709901453
105,"{'num_leaves': 255, 'colsample_bytree': 0.7, 'learning_rate': 0.01, 'lambda_l2': 1, 'subsample': 0.8, 'min_data_in_leaf': 10, 'max_bin': 127, 'objective': 'regression_l1', 'min_sum_hessian_in_leaf': 0.1}",0.067871097879
23,"{'num_leaves': 255, 'colsample_bytree': 0.7, 'learning_rate': 0.01, 'lambda_l2': 2, 'subsample': 0.8, 'min_data_in_leaf': 10, 'max_bin': 127, 'objective': 'regression_l1', 'min_sum_hessian_in_leaf': 0.01}",0.0678717952551
408,"{'num_leaves': 255, 'colsample_bytree': 0.5, 'learning_rate': 0.01, 'lambda_l2': 1, 'subsample': 0.5, 'min_data_in_leaf': 10, 'max_bin': 127, 'objective': 'regression_l1', 'min_sum_hessian_in_leaf': 0.01}",0.0678720036101
9,"{'num_leaves': 255, 'colsample_bytree': 0.5, 'learning_rate': 0.01, 'lambda_l2': 2, 'subsample': 0.5, 'min_data_in_leaf': 10, 'max_bin': 127, 'objective': 'regression_l1', 'min_sum_hessian_in_leaf': 0.01}",0.0678720095008
121,"{'num_leaves': 255, 'colsample_bytree': 0.5, 'learning_rate': 0.01, 'lambda_l2': 2, 'subsample': 0.5, 'min_data_in_leaf': 10, 'max_bin': 127, 'objective': 'regression_l1', 'min_sum_hessian_in_leaf': 0.001}",0.0678720158424
55,"{'num_leaves': 127, 'colsample_bytree': 0.7, 'learning_rate': 0.01, 'lambda_l2': 1, 'subsample': 0.8, 'min_data_in_leaf': 10, 'max_bin': 255, 'objective': 'regression_l1', 'min_sum_hessian_in_leaf': 0.1}",0.0678727834664
355,"{'num_leaves': 127, 'colsample_bytree': 0.5, 'learning_rate': 0.01, 'lambda_l2': 2, 'subsample': 0.8, 'min_data_in_leaf': 10, 'max_bin': 255, 'objective': 'regression_l1', 'min_sum_hessian_in_leaf': 0.001}",0.0678728329154
376,"{'num_leaves': 255, 'colsample_bytree': 0.7, 'learning_rate': 0.01, 'lambda_l2': 2, 'subsample': 0.8, 'min_data_in_leaf': 10, 'max_bin': 127, 'objective': 'regression_l1', 'min_sum_hessian_in_leaf': 0.1}",0.0678736244208
361,"{'num_leaves': 255, 'colsample_bytree': 0.7, 'learning_rate': 0.01, 'lambda_l2': 0, 'subsample': 0.8, 'min_data_in_leaf': 10, 'max_bin': 127, 'objective': 'regression_l1', 'min_sum_hessian_in_leaf': 0.1}",0.0678736416563
319,"{'num_leaves': 255, 'colsample_bytree': 0.7, 'learning_rate': 0.01, 'lambda_l2': 0, 'subsample': 0.8, 'min_data_in_leaf': 10, 'max_bin': 127, 'objective': 'regression_l1', 'min_sum_hessian_in_leaf': 0.001}",0.0678737988547
216,"{'num_leaves': 255, 'colsample_bytree': 0.7, 'learning_rate': 0.01, 'lambda_l2': 0, 'subsample': 0.8, 'min_data_in_leaf': 10, 'max_bin': 255, 'objective': 'regression_l1', 'min_sum_hessian_in_leaf': 0.1}",0.0678741954232
307,"{'num_leaves': 127, 'colsample_bytree': 0.5, 'learning_rate': 0.01, 'lambda_l2': 0, 'subsample': 0.8, 'min_data_in_leaf': 10, 'max_bin': 255, 'objective': 'regression_l1', 'min_sum_hessian_in_leaf': 0.001}",0.0678757104014
240,"{'num_leaves': 127, 'colsample_bytree': 0.7, 'learning_rate': 0.01, 'lambda_l2': 0, 'subsample': 0.8, 'min_data_in_leaf': 10, 'max_bin': 127, 'objective': 'regression_l1', 'min_sum_hessian_in_leaf': 0.1}",0.0678766915439
317,"{'num_leaves': 255, 'colsample_bytree': 0.5, 'learning_rate': 0.01, 'lambda_l2': 1, 'subsample': 0.5, 'min_data_in_leaf': 10, 'max_bin': 127, 'objective': 'regression_l1', 'min_sum_hessian_in_leaf': 0.001}",0.0678769949552
134,"{'num_leaves': 127, 'colsample_bytree': 0.5, 'learning_rate': 0.01, 'lambda_l2': 2, 'subsample': 0.8, 'min_data_in_leaf': 10, 'max_bin': 255, 'objective': 'regression_l1', 'min_sum_hessian_in_leaf': 0.01}",0.0678771726364
297,"{'num_leaves': 255, 'colsample_bytree': 0.7, 'learning_rate': 0.01, 'lambda_l2': 1, 'subsample': 0.5, 'min_data_in_leaf': 10, 'max_bin': 127, 'objective': 'regression_l1', 'min_sum_hessian_in_leaf': 0.1}",0.0678778528198
293,"{'num_leaves': 255, 'colsample_bytree': 0.7, 'learning_rate': 0.01, 'lambda_l2': 0, 'subsample': 0.5, 'min_data_in_leaf': 10, 'max_bin': 127, 'objective': 'regression_l1', 'min_sum_hessian_in_leaf': 0.01}",0.0678780681677
4,"{'num_leaves': 127, 'colsample_bytree': 0.5, 'learning_rate': 0.01, 'lambda_l2': 1, 'subsample': 0.8, 'min_data_in_leaf': 10, 'max_bin': 255, 'objective': 'regression_l1', 'min_sum_hessian_in_leaf': 0.1}",0.0678785475435
97,"{'num_leaves': 127, 'colsample_bytree': 0.5, 'learning_rate': 0.01, 'lambda_l2': 2, 'subsample': 0.5, 'min_data_in_leaf': 10, 'max_bin': 127, 'objective': 'regression_l1', 'min_sum_hessian_in_leaf': 0.1}",0.06787873477
392,"{'num_leaves': 127, 'colsample_bytree': 0.7, 'learning_rate': 0.01, 'lambda_l2': 1, 'subsample': 0.5, 'min_data_in_leaf': 20, 'max_bin': 255, 'objective': 'regression_l1', 'min_sum_hessian_in_leaf': 0.01}",0.0678790651607
226,"{'num_leaves': 255, 'colsample_bytree': 0.5, 'learning_rate': 0.01, 'lambda_l2': 0, 'subsample': 0.5, 'min_data_in_leaf': 10, 'max_bin': 255, 'objective': 'regression_l1', 'min_sum_hessian_in_leaf': 0.001}",0.0678793319708
249,"{'num_leaves': 127, 'colsample_bytree': 0.5, 'learning_rate': 0.01, 'lambda_l2': 2, 'subsample': 0.8, 'min_data_in_leaf': 10, 'max_bin': 127, 'objective': 'regression_l1', 'min_sum_hessian_in_leaf': 0.001}",0.0678793583789
160,"{'num_leaves': 255, 'colsample_bytree': 0.5, 'learning_rate': 0.01, 'lambda_l2': 0, 'subsample': 0.5, 'min_data_in_leaf': 10, 'max_bin': 127, 'objective': 'regression_l1', 'min_sum_hessian_in_leaf': 0.001}",0.0678795351905
352,"{'num_leaves': 255, 'colsample_bytree': 0.5, 'learning_rate': 0.01, 'lambda_l2': 2, 'subsample': 0.5, 'min_data_in_leaf': 10, 'max_bin': 255, 'objective': 'regression_l1', 'min_sum_hessian_in_leaf': 0.1}",0.0678798190699
232,"{'num_leaves': 255, 'colsample_bytree': 0.5, 'learning_rate': 0.01, 'lambda_l2': 2, 'subsample': 0.5, 'min_data_in_leaf': 10, 'max_bin': 127, 'objective': 'regression_l1', 'min_sum_hessian_in_leaf': 0.1}",0.0678800926629
366,"{'num_leaves': 127, 'colsample_bytree': 0.7, 'learning_rate': 0.01, 'lambda_l2': 0, 'subsample': 0.8, 'min_data_in_leaf': 10, 'max_bin': 127, 'objective': 'regression_l1', 'min_sum_hessian_in_leaf': 0.001}",0.0678814936927
419,"{'num_leaves': 255, 'colsample_bytree': 0.7, 'learning_rate': 0.01, 'lambda_l2': 2, 'subsample': 0.5, 'min_data_in_leaf': 10, 'max_bin': 127, 'objective': 'regression_l1', 'min_sum_hessian_in_leaf': 0.001}",0.0678815903942
164,"{'num_leaves': 255, 'colsample_bytree': 0.7, 'learning_rate': 0.01, 'lambda_l2': 0, 'subsample': 0.8, 'min_data_in_leaf': 10, 'max_bin': 127, 'objective': 'regression_l1', 'min_sum_hessian_in_leaf': 0.01}",0.0678819169515
80,"{'num_leaves': 127, 'colsample_bytree': 0.5, 'learning_rate': 0.01, 'lambda_l2': 1, 'subsample': 0.8, 'min_data_in_leaf': 10, 'max_bin': 255, 'objective': 'regression_l1', 'min_sum_hessian_in_leaf': 0.01}",0.0678820596485
420,"{'num_leaves': 127, 'colsample_bytree': 0.5, 'learning_rate': 0.01, 'lambda_l2': 1, 'subsample': 0.8, 'min_data_in_leaf': 10, 'max_bin': 127, 'objective': 'regression_l1', 'min_sum_hessian_in_leaf': 0.1}",0.0678822555487
424,"{'num_leaves': 127, 'colsample_bytree': 0.7, 'learning_rate': 0.01, 'lambda_l2': 1, 'subsample': 0.8, 'min_data_in_leaf': 10, 'max_bin': 255, 'objective': 'regression_l1', 'min_sum_hessian_in_leaf': 0.01}",0.0678824237368
113,"{'num_leaves': 255, 'colsample_bytree': 0.5, 'learning_rate': 0.01, 'lambda_l2': 1, 'subsample': 0.5, 'min_data_in_leaf': 10, 'max_bin': 255, 'objective': 'regression_l1', 'min_sum_hessian_in_leaf': 0.01}",0.067882843992
51,"{'num_leaves': 127, 'colsample_bytree': 0.5, 'learning_rate': 0.01, 'lambda_l2': 0, 'subsample': 0.8, 'min_data_in_leaf': 10, 'max_bin': 255, 'objective': 'regression_l1', 'min_sum_hessian_in_leaf': 0.01}",0.0678841618201
167,"{'num_leaves': 127, 'colsample_bytree': 0.7, 'learning_rate': 0.01, 'lambda_l2': 1, 'subsample': 0.8, 'min_data_in_leaf': 10, 'max_bin': 127, 'objective': 'regression_l1', 'min_sum_hessian_in_leaf': 0.01}",0.0678850479723
209,"{'num_leaves': 255, 'colsample_bytree': 0.7, 'learning_rate': 0.01, 'lambda_l2': 2, 'subsample': 0.5, 'min_data_in_leaf': 10, 'max_bin': 255, 'objective': 'regression_l1', 'min_sum_hessian_in_leaf': 0.1}",0.0678852961842
190,"{'num_leaves': 127, 'colsample_bytree': 0.5, 'learning_rate': 0.01, 'lambda_l2': 1, 'subsample': 0.8, 'min_data_in_leaf': 10, 'max_bin': 127, 'objective': 'regression_l1', 'min_sum_hessian_in_leaf': 0.001}",0.0678857596783
349,"{'num_leaves': 127, 'colsample_bytree': 0.5, 'learning_rate': 0.01, 'lambda_l2': 1, 'subsample': 0.8, 'min_data_in_leaf': 10, 'max_bin': 255, 'objective': 'regression_l1', 'min_sum_hessian_in_leaf': 0.001}",0.0678858319211
251,"{'num_leaves': 127, 'colsample_bytree': 0.7, 'learning_rate': 0.01, 'lambda_l2': 1, 'subsample': 0.8, 'min_data_in_leaf': 10, 'max_bin': 255, 'objective': 'regression_l1', 'min_sum_hessian_in_leaf': 0.001}",0.0678863665927
136,"{'num_leaves': 127, 'colsample_bytree': 0.5, 'learning_rate': 0.01, 'lambda_l2': 1, 'subsample': 0.8, 'min_data_in_leaf': 10, 'max_bin': 127, 'objective': 'regression_l1', 'min_sum_hessian_in_leaf': 0.01}",0.0678863716523
151,"{'num_leaves': 255, 'colsample_bytree': 0.7, 'learning_rate': 0.01, 'lambda_l2': 0, 'subsample': 0.5, 'min_data_in_leaf': 10, 'max_bin': 255, 'objective': 'regression_l1', 'min_sum_hessian_in_leaf': 0.1}",0.067886470537
314,"{'num_leaves': 127, 'colsample_bytree': 0.5, 'learning_rate': 0.01, 'lambda_l2': 0, 'subsample': 0.8, 'min_data_in_leaf': 10, 'max_bin': 127, 'objective': 'regression_l1', 'min_sum_hessian_in_leaf': 0.1}",0.0678875585639
374,"{'num_leaves': 255, 'colsample_bytree': 0.7, 'learning_rate': 0.01, 'lambda_l2': 1, 'subsample': 0.5, 'min_data_in_leaf': 10, 'max_bin': 127, 'objective': 'regression_l1', 'min_sum_hessian_in_leaf': 0.01}",0.0678876073164
386,"{'num_leaves': 255, 'colsample_bytree': 0.7, 'learning_rate': 0.01, 'lambda_l2': 0, 'subsample': 0.5, 'min_data_in_leaf': 10, 'max_bin': 127, 'objective': 'regression_l1', 'min_sum_hessian_in_leaf': 0.001}",0.0678886598189
266,"{'num_leaves': 255, 'colsample_bytree': 0.7, 'learning_rate': 0.01, 'lambda_l2': 2, 'subsample': 0.8, 'min_data_in_leaf': 10, 'max_bin': 255, 'objective': 'regression_l1', 'min_sum_hessian_in_leaf': 0.01}",0.0678890138107
246,"{'num_leaves': 255, 'colsample_bytree': 0.5, 'learning_rate': 0.01, 'lambda_l2': 1, 'subsample': 0.5, 'min_data_in_leaf': 10, 'max_bin': 255, 'objective': 'regression_l1', 'min_sum_hessian_in_leaf': 0.1}",0.0678890256254
32,"{'num_leaves': 127, 'colsample_bytree': 0.7, 'learning_rate': 0.01, 'lambda_l2': 0, 'subsample': 0.8, 'min_data_in_leaf': 10, 'max_bin': 255, 'objective': 'regression_l1', 'min_sum_hessian_in_leaf': 0.001}",0.0678892157326
223,"{'num_leaves': 127, 'colsample_bytree': 0.7, 'learning_rate': 0.01, 'lambda_l2': 2, 'subsample': 0.8, 'min_data_in_leaf': 10, 'max_bin': 127, 'objective': 'regression_l1', 'min_sum_hessian_in_leaf': 0.1}",0.0678895831119
259,"{'num_leaves': 255, 'colsample_bytree': 0.7, 'learning_rate': 0.01, 'lambda_l2': 2, 'subsample': 0.5, 'min_data_in_leaf': 10, 'max_bin': 255, 'objective': 'regression_l1', 'min_sum_hessian_in_leaf': 0.01}",0.0678896735023
337,"{'num_leaves': 255, 'colsample_bytree': 0.7, 'learning_rate': 0.01, 'lambda_l2': 1, 'subsample': 0.8, 'min_data_in_leaf': 10, 'max_bin': 127, 'objective': 'regression_l1', 'min_sum_hessian_in_leaf': 0.001}",0.0678898946008
301,"{'num_leaves': 255, 'colsample_bytree': 0.5, 'learning_rate': 0.01, 'lambda_l2': 2, 'subsample': 0.5, 'min_data_in_leaf': 10, 'max_bin': 255, 'objective': 'regression_l1', 'min_sum_hessian_in_leaf': 0.001}",0.0678902988864
391,"{'num_leaves': 127, 'colsample_bytree': 0.5, 'learning_rate': 0.01, 'lambda_l2': 0, 'subsample': 0.8, 'min_data_in_leaf': 10, 'max_bin': 127, 'objective': 'regression_l1', 'min_sum_hessian_in_leaf': 0.001}",0.0678911771802
95,"{'num_leaves': 127, 'colsample_bytree': 0.5, 'learning_rate': 0.01, 'lambda_l2': 2, 'subsample': 0.5, 'min_data_in_leaf': 10, 'max_bin': 255, 'objective': 'regression_l1', 'min_sum_hessian_in_leaf': 0.1}",0.0678916229331
42,"{'num_leaves': 127, 'colsample_bytree': 0.7, 'learning_rate': 0.01, 'lambda_l2': 2, 'subsample': 0.5, 'min_data_in_leaf': 10, 'max_bin': 255, 'objective': 'regression_l1', 'min_sum_hessian_in_leaf': 0.01}",0.0678919009884
407,"{'num_leaves': 127, 'colsample_bytree': 0.7, 'learning_rate': 0.01, 'lambda_l2': 0, 'subsample': 0.8, 'min_data_in_leaf': 10, 'max_bin': 127, 'objective': 'regression_l1', 'min_sum_hessian_in_leaf': 0.01}",0.0678926816597
298,"{'num_leaves': 127, 'colsample_bytree': 0.5, 'learning_rate': 0.01, 'lambda_l2': 1, 'subsample': 0.5, 'min_data_in_leaf': 10, 'max_bin': 255, 'objective': 'regression_l1', 'min_sum_hessian_in_leaf': 0.001}",0.0678929023433
397,"{'num_leaves': 127, 'colsample_bytree': 0.5, 'learning_rate': 0.01, 'lambda_l2': 1, 'subsample': 0.5, 'min_data_in_leaf': 10, 'max_bin': 255, 'objective': 'regression_l1', 'min_sum_hessian_in_leaf': 0.1}",0.0678933562965
332,"{'num_leaves': 127, 'colsample_bytree': 0.7, 'learning_rate': 0.01, 'lambda_l2': 0, 'subsample': 0.8, 'min_data_in_leaf': 10, 'max_bin': 255, 'objective': 'regression_l1', 'min_sum_hessian_in_leaf': 0.01}",0.0678935370683
19,"{'num_leaves': 127, 'colsample_bytree': 0.7, 'learning_rate': 0.01, 'lambda_l2': 2, 'subsample': 0.8, 'min_data_in_leaf': 10, 'max_bin': 255, 'objective': 'regression_l1', 'min_sum_hessian_in_leaf': 0.001}",0.0678937983408
346,"{'num_leaves': 127, 'colsample_bytree': 0.5, 'learning_rate': 0.01, 'lambda_l2': 0, 'subsample': 0.8, 'min_data_in_leaf': 10, 'max_bin': 255, 'objective': 'regression_l1', 'min_sum_hessian_in_leaf': 0.1}",0.0678939829097
325,"{'num_leaves': 127, 'colsample_bytree': 0.7, 'learning_rate': 0.01, 'lambda_l2': 2, 'subsample': 0.8, 'min_data_in_leaf': 10, 'max_bin': 127, 'objective': 'regression_l1', 'min_sum_hessian_in_leaf': 0.001}",0.0678940367925
78,"{'num_leaves': 255, 'colsample_bytree': 0.5, 'learning_rate': 0.01, 'lambda_l2': 0, 'subsample': 0.5, 'min_data_in_leaf': 10, 'max_bin': 255, 'objective': 'regression_l1', 'min_sum_hessian_in_leaf': 0.01}",0.0678943638217
87,"{'num_leaves': 255, 'colsample_bytree': 0.5, 'learning_rate': 0.01, 'lambda_l2': 1, 'subsample': 0.5, 'min_data_in_leaf': 10, 'max_bin': 127, 'objective': 'regression_l1', 'min_sum_hessian_in_leaf': 0.1}",0.06789458711
272,"{'num_leaves': 127, 'colsample_bytree': 0.5, 'learning_rate': 0.01, 'lambda_l2': 2, 'subsample': 0.5, 'min_data_in_leaf': 10, 'max_bin': 127, 'objective': 'regression_l1', 'min_sum_hessian_in_leaf': 0.01}",0.0678959013743
175,"{'num_leaves': 127, 'colsample_bytree': 0.5, 'learning_rate': 0.01, 'lambda_l2': 0, 'subsample': 0.5, 'min_data_in_leaf': 10, 'max_bin': 127, 'objective': 'regression_l1', 'min_sum_hessian_in_leaf': 0.001}",0.0678972313056
279,"{'num_leaves': 127, 'colsample_bytree': 0.7, 'learning_rate': 0.01, 'lambda_l2': 1, 'subsample': 0.8, 'min_data_in_leaf': 10, 'max_bin': 127, 'objective': 'regression_l1', 'min_sum_hessian_in_leaf': 0.001}",0.0678973641972
257,"{'num_leaves': 255, 'colsample_bytree': 0.7, 'learning_rate': 0.01, 'lambda_l2': 0, 'subsample': 0.5, 'min_data_in_leaf': 10, 'max_bin': 255, 'objective': 'regression_l1', 'min_sum_hessian_in_leaf': 0.01}",0.0678977785783
340,"{'num_leaves': 127, 'colsample_bytree': 0.5, 'learning_rate': 0.01, 'lambda_l2': 1, 'subsample': 0.5, 'min_data_in_leaf': 10, 'max_bin': 127, 'objective': 'regression_l1', 'min_sum_hessian_in_leaf': 0.001}",0.0678981085489
145,"{'num_leaves': 255, 'colsample_bytree': 0.7, 'learning_rate': 0.01, 'lambda_l2': 1, 'subsample': 0.5, 'min_data_in_leaf': 10, 'max_bin': 255, 'objective': 'regression_l1', 'min_sum_hessian_in_leaf': 0.1}",0.0678981484669
70,"{'num_leaves': 127, 'colsample_bytree': 0.7, 'learning_rate': 0.01, 'lambda_l2': 2, 'subsample': 0.8, 'min_data_in_leaf': 10, 'max_bin': 255, 'objective': 'regression_l1', 'min_sum_hessian_in_leaf': 0.1}",0.0678983479893
69,"{'num_leaves': 255, 'colsample_bytree': 0.5, 'learning_rate': 0.01, 'lambda_l2': 0, 'subsample': 0.5, 'min_data_in_leaf': 10, 'max_bin': 255, 'objective': 'regression_l1', 'min_sum_hessian_in_leaf': 0.1}",0.0678998999195
401,"{'num_leaves': 127, 'colsample_bytree': 0.5, 'learning_rate': 0.01, 'lambda_l2': 1, 'subsample': 0.5, 'min_data_in_leaf': 10, 'max_bin': 127, 'objective': 'regression_l1', 'min_sum_hessian_in_leaf': 0.1}",0.0679000684846
385,"{'num_leaves': 127, 'colsample_bytree': 0.5, 'learning_rate': 0.01, 'lambda_l2': 0, 'subsample': 0.5, 'min_data_in_leaf': 10, 'max_bin': 127, 'objective': 'regression_l1', 'min_sum_hessian_in_leaf': 0.01}",0.0679002697988
428,"{'num_leaves': 127, 'colsample_bytree': 0.7, 'learning_rate': 0.01, 'lambda_l2': 0, 'subsample': 0.8, 'min_data_in_leaf': 10, 'max_bin': 255, 'objective': 'regression_l1', 'min_sum_hessian_in_leaf': 0.1}",0.0679004435724
219,"{'num_leaves': 127, 'colsample_bytree': 0.7, 'learning_rate': 0.01, 'lambda_l2': 2, 'subsample': 0.8, 'min_data_in_leaf': 10, 'max_bin': 127, 'objective': 'regression_l1', 'min_sum_hessian_in_leaf': 0.01}",0.0679006633634
369,"{'num_leaves': 255, 'colsample_bytree': 0.7, 'learning_rate': 0.01, 'lambda_l2': 0, 'subsample': 0.5, 'min_data_in_leaf': 10, 'max_bin': 127, 'objective': 'regression_l1', 'min_sum_hessian_in_leaf': 0.1}",0.0679015509291
329,"{'num_leaves': 255, 'colsample_bytree': 0.7, 'learning_rate': 0.01, 'lambda_l2': 2, 'subsample': 0.5, 'min_data_in_leaf': 10, 'max_bin': 127, 'objective': 'regression_l1', 'min_sum_hessian_in_leaf': 0.01}",0.067901739151
323,"{'num_leaves': 127, 'colsample_bytree': 0.5, 'learning_rate': 0.01, 'lambda_l2': 1, 'subsample': 0.5, 'min_data_in_leaf': 10, 'max_bin': 255, 'objective': 'regression_l1', 'min_sum_hessian_in_leaf': 0.01}",0.0679022914215
211,"{'num_leaves': 255, 'colsample_bytree': 0.7, 'learning_rate': 0.01, 'lambda_l2': 1, 'subsample': 0.5, 'min_data_in_leaf': 10, 'max_bin': 255, 'objective': 'regression_l1', 'min_sum_hessian_in_leaf': 0.001}",0.0679022947664
53,"{'num_leaves': 127, 'colsample_bytree': 0.5, 'learning_rate': 0.01, 'lambda_l2': 2, 'subsample': 0.5, 'min_data_in_leaf': 10, 'max_bin': 255, 'objective': 'regression_l1', 'min_sum_hessian_in_leaf': 0.001}",0.0679032638451
320,"{'num_leaves': 127, 'colsample_bytree': 0.7, 'learning_rate': 0.01, 'lambda_l2': 2, 'subsample': 0.5, 'min_data_in_leaf': 10, 'max_bin': 255, 'objective': 'regression_l1', 'min_sum_hessian_in_leaf': 0.001}",0.067904269347
322,"{'num_leaves': 127, 'colsample_bytree': 0.5, 'learning_rate': 0.01, 'lambda_l2': 1, 'subsample': 0.5, 'min_data_in_leaf': 10, 'max_bin': 127, 'objective': 'regression_l1', 'min_sum_hessian_in_leaf': 0.01}",0.0679044607718
170,"{'num_leaves': 127, 'colsample_bytree': 0.7, 'learning_rate': 0.01, 'lambda_l2': 1, 'subsample': 0.8, 'min_data_in_leaf': 10, 'max_bin': 127, 'objective': 'regression_l1', 'min_sum_hessian_in_leaf': 0.1}",0.0679045596712
375,"{'num_leaves': 127, 'colsample_bytree': 0.7, 'learning_rate': 0.01, 'lambda_l2': 1, 'subsample': 0.5, 'min_data_in_leaf': 10, 'max_bin': 127, 'objective': 'regression_l1', 'min_sum_hessian_in_leaf': 0.001}",0.0679047463056
18,"{'num_leaves': 255, 'colsample_bytree': 0.5, 'learning_rate': 0.01, 'lambda_l2': 0, 'subsample': 0.5, 'min_data_in_leaf': 10, 'max_bin': 127, 'objective': 'regression_l1', 'min_sum_hessian_in_leaf': 0.01}",0.0679059691253
108,"{'num_leaves': 255, 'colsample_bytree': 0.5, 'learning_rate': 0.01, 'lambda_l2': 0, 'subsample': 0.5, 'min_data_in_leaf': 10, 'max_bin': 127, 'objective': 'regression_l1', 'min_sum_hessian_in_leaf': 0.1}",0.0679061820646
357,"{'num_leaves': 255, 'colsample_bytree': 0.7, 'learning_rate': 0.01, 'lambda_l2': 0, 'subsample': 0.5, 'min_data_in_leaf': 10, 'max_bin': 255, 'objective': 'regression_l1', 'min_sum_hessian_in_leaf': 0.001}",0.0679073641632
358,"{'num_leaves': 127, 'colsample_bytree': 0.5, 'learning_rate': 0.01, 'lambda_l2': 2, 'subsample': 0.5, 'min_data_in_leaf': 10, 'max_bin': 255, 'objective': 'regression_l1', 'min_sum_hessian_in_leaf': 0.01}",0.0679075313931
109,"{'num_leaves': 127, 'colsample_bytree': 0.7, 'learning_rate': 0.01, 'lambda_l2': 1, 'subsample': 0.5, 'min_data_in_leaf': 10, 'max_bin': 127, 'objective': 'regression_l1', 'min_sum_hessian_in_leaf': 0.01}",0.0679076025826
388,"{'num_leaves': 127, 'colsample_bytree': 0.7, 'learning_rate': 0.01, 'lambda_l2': 2, 'subsample': 0.5, 'min_data_in_leaf': 10, 'max_bin': 127, 'objective': 'regression_l1', 'min_sum_hessian_in_leaf': 0.001}",0.0679080326859
126,"{'num_leaves': 127, 'colsample_bytree': 0.7, 'learning_rate': 0.01, 'lambda_l2': 0, 'subsample': 0.5, 'min_data_in_leaf': 10, 'max_bin': 127, 'objective': 'regression_l1', 'min_sum_hessian_in_leaf': 0.1}",0.067908719322
173,"{'num_leaves': 127, 'colsample_bytree': 0.5, 'learning_rate': 0.01, 'lambda_l2': 0, 'subsample': 0.5, 'min_data_in_leaf': 10, 'max_bin': 255, 'objective': 'regression_l1', 'min_sum_hessian_in_leaf': 0.1}",0.0679090217884
141,"{'num_leaves': 127, 'colsample_bytree': 0.5, 'learning_rate': 0.01, 'lambda_l2': 0, 'subsample': 0.5, 'min_data_in_leaf': 10, 'max_bin': 127, 'objective': 'regression_l1', 'min_sum_hessian_in_leaf': 0.1}",0.0679092371454
270,"{'num_leaves': 127, 'colsample_bytree': 0.5, 'learning_rate': 0.01, 'lambda_l2': 0, 'subsample': 0.5, 'min_data_in_leaf': 10, 'max_bin': 255, 'objective': 'regression_l1', 'min_sum_hessian_in_leaf': 0.01}",0.0679093620907
345,"{'num_leaves': 255, 'colsample_bytree': 0.7, 'learning_rate': 0.01, 'lambda_l2': 2, 'subsample': 0.5, 'min_data_in_leaf': 10, 'max_bin': 127, 'objective': 'regression_l1', 'min_sum_hessian_in_leaf': 0.1}",0.0679096339699
28,"{'num_leaves': 255, 'colsample_bytree': 0.7, 'learning_rate': 0.01, 'lambda_l2': 2, 'subsample': 0.5, 'min_data_in_leaf': 10, 'max_bin': 255, 'objective': 'regression_l1', 'min_sum_hessian_in_leaf': 0.001}",0.0679098366851
430,"{'num_leaves': 127, 'colsample_bytree': 0.5, 'learning_rate': 0.01, 'lambda_l2': 2, 'subsample': 0.5, 'min_data_in_leaf': 10, 'max_bin': 127, 'objective': 'regression_l1', 'min_sum_hessian_in_leaf': 0.001}",0.0679098381772
206,"{'num_leaves': 127, 'colsample_bytree': 0.7, 'learning_rate': 0.01, 'lambda_l2': 2, 'subsample': 0.5, 'min_data_in_leaf': 10, 'max_bin': 255, 'objective': 'regression_l1', 'min_sum_hessian_in_leaf': 0.1}",0.0679103963973
182,"{'num_leaves': 127, 'colsample_bytree': 0.7, 'learning_rate': 0.01, 'lambda_l2': 1, 'subsample': 0.5, 'min_data_in_leaf': 10, 'max_bin': 127, 'objective': 'regression_l1', 'min_sum_hessian_in_leaf': 0.1}",0.0679117013958
179,"{'num_leaves': 127, 'colsample_bytree': 0.7, 'learning_rate': 0.01, 'lambda_l2': 2, 'subsample': 0.5, 'min_data_in_leaf': 10, 'max_bin': 127, 'objective': 'regression_l1', 'min_sum_hessian_in_leaf': 0.1}",0.067912252604
203,"{'num_leaves': 255, 'colsample_bytree': 0.7, 'learning_rate': 0.01, 'lambda_l2': 1, 'subsample': 0.5, 'min_data_in_leaf': 10, 'max_bin': 255, 'objective': 'regression_l1', 'min_sum_hessian_in_leaf': 0.01}",0.0679138795232
13,"{'num_leaves': 127, 'colsample_bytree': 0.7, 'learning_rate': 0.01, 'lambda_l2': 0, 'subsample': 0.5, 'min_data_in_leaf': 10, 'max_bin': 255, 'objective': 'regression_l1', 'min_sum_hessian_in_leaf': 0.1}",0.0679146445517
243,"{'num_leaves': 255, 'colsample_bytree': 0.7, 'learning_rate': 0.01, 'lambda_l2': 1, 'subsample': 0.5, 'min_data_in_leaf': 10, 'max_bin': 127, 'objective': 'regression_l1', 'min_sum_hessian_in_leaf': 0.001}",0.0679159344402
265,"{'num_leaves': 127, 'colsample_bytree': 0.7, 'learning_rate': 0.01, 'lambda_l2': 0, 'subsample': 0.5, 'min_data_in_leaf': 10, 'max_bin': 255, 'objective': 'regression_l1', 'min_sum_hessian_in_leaf': 0.01}",0.0679167991776
225,"{'num_leaves': 127, 'colsample_bytree': 0.7, 'learning_rate': 0.01, 'lambda_l2': 1, 'subsample': 0.5, 'min_data_in_leaf': 10, 'max_bin': 255, 'objective': 'regression_l1', 'min_sum_hessian_in_leaf': 0.001}",0.0679171321881
414,"{'num_leaves': 127, 'colsample_bytree': 0.5, 'learning_rate': 0.01, 'lambda_l2': 0, 'subsample': 0.5, 'min_data_in_leaf': 10, 'max_bin': 255, 'objective': 'regression_l1', 'min_sum_hessian_in_leaf': 0.001}",0.0679189057744
365,"{'num_leaves': 127, 'colsample_bytree': 0.7, 'learning_rate': 0.01, 'lambda_l2': 2, 'subsample': 0.5, 'min_data_in_leaf': 10, 'max_bin': 127, 'objective': 'regression_l1', 'min_sum_hessian_in_leaf': 0.01}",0.0679220198699
309,"{'num_leaves': 127, 'colsample_bytree': 0.7, 'learning_rate': 0.01, 'lambda_l2': 1, 'subsample': 0.5, 'min_data_in_leaf': 10, 'max_bin': 255, 'objective': 'regression_l1', 'min_sum_hessian_in_leaf': 0.1}",0.0679236181464
409,"{'num_leaves': 127, 'colsample_bytree': 0.7, 'learning_rate': 0.01, 'lambda_l2': 1, 'subsample': 0.5, 'min_data_in_leaf': 10, 'max_bin': 255, 'objective': 'regression_l1', 'min_sum_hessian_in_leaf': 0.01}",0.0679236249844
21,"{'num_leaves': 127, 'colsample_bytree': 0.7, 'learning_rate': 0.01, 'lambda_l2': 0, 'subsample': 0.5, 'min_data_in_leaf': 10, 'max_bin': 255, 'objective': 'regression_l1', 'min_sum_hessian_in_leaf': 0.001}",0.0679268322606
300,"{'num_leaves': 127, 'colsample_bytree': 0.7, 'learning_rate': 0.01, 'lambda_l2': 0, 'subsample': 0.5, 'min_data_in_leaf': 10, 'max_bin': 127, 'objective': 'regression_l1', 'min_sum_hessian_in_leaf': 0.001}",0.0679339434419
162,"{'num_leaves': 127, 'colsample_bytree': 0.7, 'learning_rate': 0.01, 'lambda_l2': 0, 'subsample': 0.5, 'min_data_in_leaf': 10, 'max_bin': 127, 'objective': 'regression_l1', 'min_sum_hessian_in_leaf': 0.01}",0.0679350829587
